HDL/simulation/gc_dv_top_level_tb02.vcd
$date
  Sun Mar 14 12:19:40 2021
$end
$version
  GHDL v0
$end
$timescale
  1 fs
$end
$scope module standard $end
$upscope $end
$scope module std_logic_1164 $end
$upscope $end
$scope module numeric_std $end
$upscope $end
$scope module gc_dv_top_level_tb $end
$var reg 1 ! vclk_tb $end
$var reg 1 " vphase_tb $end
$var reg 8 # vdata_tb[7:0] $end
$var reg 1 $ rgb_out_en_tb $end
$var reg 8 % g_y_dac_tb[7:0] $end
$var reg 8 & b_cb_dac_tb[7:0] $end
$var reg 8 ' r_cr_dac_tb[7:0] $end
$var reg 1 ( clk_dac_tb $end
$var reg 1 ) nc_sync_dac_tb $end
$var reg 1 * nblanking_tb $end
$scope module uut $end
$var reg 1 + vclk $end
$var reg 1 , vphase $end
$var reg 8 - vdata[7:0] $end
$var reg 1 . rgb_out_en $end
$var reg 8 / g_y_dac[7:0] $end
$var reg 8 0 b_cb_dac[7:0] $end
$var reg 8 1 r_cr_dac[7:0] $end
$var reg 1 2 clk_dac $end
$var reg 1 3 nc_sync_dac $end
$var reg 1 4 nblanking_dac $end
$var reg 1 5 pclk_decode $end
$var reg 8 6 y_decode[7:0] $end
$var reg 8 7 cbcr_decode[7:0] $end
$var reg 1 8 is_cr_decode $end
$var reg 1 9 is_odd_decode $end
$var reg 1 : h_sync_decode $end
$var reg 1 ; v_sync_decode $end
$var reg 1 < c_sync_decode $end
$var reg 1 = blanking_decode $end
$var reg 1 > dvalid_decode $end
$var reg 1 ? pclk_444 $end
$var reg 8 @ y_444[7:0] $end
$var reg 8 A cb_444[7:0] $end
$var reg 8 B cr_444[7:0] $end
$var reg 1 C h_sync_444 $end
$var reg 1 D v_sync_444 $end
$var reg 1 E c_sync_444 $end
$var reg 1 F blanking_444 $end
$var reg 1 G dvalid_444 $end
$var reg 1 H pclk_cconv $end
$var reg 8 I g_y_cconv[7:0] $end
$var reg 8 J b_cb_cconv[7:0] $end
$var reg 8 K r_cr_cconv[7:0] $end
$var reg 1 L h_sync_cconv $end
$var reg 1 M v_sync_cconv $end
$var reg 1 N c_sync_cconv $end
$var reg 1 O blanking_cconv $end
$var reg 1 P dvalid_cconv $end
$scope module frame_decode $end
$var reg 1 Q vclk $end
$var reg 1 R vphase $end
$var reg 8 S vdata[7:0] $end
$var reg 1 T pclk $end
$var reg 8 U y[7:0] $end
$var reg 8 V cbcr[7:0] $end
$var reg 1 W is_cr $end
$var reg 1 X is_odd $end
$var reg 1 Y h_sync $end
$var reg 1 Z v_sync $end
$var reg 1 [ c_sync $end
$var reg 1 \ blanking $end
$var reg 1 ] dvalid $end
$comment state_slow is not handled $end
$comment state_fast is not handled $end
$var reg 1 ^ previous_vphase $end
$var reg 1 _ vphase_slow_validated $end
$var reg 1 ` vphase_fast_validated $end
$var reg 8 a y_slow[7:0] $end
$var reg 8 b y_slow_validated[7:0] $end
$var reg 8 c y_fast[7:0] $end
$var reg 8 d y_fast_validated[7:0] $end
$var reg 8 e cbcr_slow[7:0] $end
$var reg 8 f cbcr_slow_validated[7:0] $end
$var reg 8 g cbcr_fast[7:0] $end
$var reg 8 h cbcr_fast_validated[7:0] $end
$var reg 1 i dvalid_slow $end
$var reg 1 j dinvalid_slow $end
$var reg 1 k dvalid_fast $end
$var reg 1 l dinvalid_fast $end
$comment source_active is not handled $end
$comment pclk_state is not handled $end
$upscope $end
$scope module chroma_upsampling $end
$var reg 1 m vclk $end
$var reg 1 n pclk $end
$var reg 8 o y[7:0] $end
$var reg 8 p cbcr[7:0] $end
$var reg 1 q is_cr $end
$var reg 1 r is_odd $end
$var reg 1 s h_sync $end
$var reg 1 t v_sync $end
$var reg 1 u c_sync $end
$var reg 1 v blanking $end
$var reg 1 w dvalid $end
$var reg 1 x pclk_out $end
$var reg 8 y y_out[7:0] $end
$var reg 8 z cb_out[7:0] $end
$var reg 8 { cr_out[7:0] $end
$var reg 1 | h_sync_out $end
$var reg 1 } v_sync_out $end
$var reg 1 !" c_sync_out $end
$var reg 1 "" blanking_out $end
$var reg 1 #" dvalid_out $end
$var reg 8 $" cb_sample[7:0] $end
$var reg 8 %" cr_sample[7:0] $end
$var reg 1 &" cb_loaded $end
$var reg 1 '" cr_loaded $end
$comment y_pipe is not handled $end
$var reg 5 (" pclk_pipe[0:4] $end
$var reg 2 )" h_sync_pipe[0:1] $end
$var reg 2 *" v_sync_pipe[0:1] $end
$var reg 2 +" c_sync_pipe[0:1] $end
$var reg 2 ," blanking_pipe[0:1] $end
$var reg 2 -" dvalid_pipe[0:1] $end
$upscope $end
$scope module color_space_converter $end
$var reg 1 ." vclk $end
$var reg 1 /" pclk $end
$var reg 8 0" y[7:0] $end
$var reg 8 1" cb[7:0] $end
$var reg 8 2" cr[7:0] $end
$var reg 1 3" h_sync $end
$var reg 1 4" v_sync $end
$var reg 1 5" c_sync $end
$var reg 1 6" blanking $end
$var reg 1 7" dvalid $end
$var reg 1 8" rgb_out_en $end
$var reg 1 9" pclk_out $end
$var reg 8 :" g_y_out[7:0] $end
$var reg 8 ;" b_cb_out[7:0] $end
$var reg 8 <" r_cr_out[7:0] $end
$var reg 1 =" h_sync_out $end
$var reg 1 >" v_sync_out $end
$var reg 1 ?" c_sync_out $end
$var reg 1 @" blanking_out $end
$var reg 1 A" dvalid_out $end
$upscope $end
$scope module output_video_samples_to_dac $end
$var reg 1 B" vclk $end
$var reg 1 C" pclk $end
$var reg 8 D" g_y[7:0] $end
$var reg 8 E" b_cb[7:0] $end
$var reg 8 F" r_cr[7:0] $end
$var reg 1 G" h_sync $end
$var reg 1 H" v_sync $end
$var reg 1 I" c_sync $end
$var reg 1 J" blanking $end
$var reg 1 K" dvalid $end
$var reg 8 L" g_y_dac[7:0] $end
$var reg 8 M" b_cb_dac[7:0] $end
$var reg 8 N" r_cr_dac[7:0] $end
$var reg 1 O" clk_dac $end
$var reg 1 P" nc_sync_dac $end
$var reg 1 Q" nblanking_dac $end
$upscope $end
$upscope $end
$upscope $end
$enddefinitions $end
#0
0!
0"
b00000000 #
0$
bUUUUUUUU %
bUUUUUUUU &
bUUUUUUUU '
U(
U)
U*
0+
0,
b00000000 -
0.
bUUUUUUUU /
bUUUUUUUU 0
bUUUUUUUU 1
U2
U3
U4
U5
bUUUUUUUU 6
bUUUUUUUU 7
U8
U9
U:
U;
U<
U=
U>
U?
bUUUUUUUU @
bUUUUUUUU A
bUUUUUUUU B
UC
UD
UE
UF
UG
UH
bUUUUUUUU I
bUUUUUUUU J
bUUUUUUUU K
UL
UM
UN
UO
UP
0Q
0R
b00000000 S
UT
bUUUUUUUU U
bUUUUUUUU V
UW
UX
UY
UZ
U[
U\
U]
U^
U_
U`
bUUUUUUUU a
bUUUUUUUU b
bUUUUUUUU c
bUUUUUUUU d
bUUUUUUUU e
bUUUUUUUU f
bUUUUUUUU g
bUUUUUUUU h
0i
0j
0k
0l
0m
Un
bUUUUUUUU o
bUUUUUUUU p
Uq
Ur
Us
Ut
Uu
Uv
Uw
Ux
bUUUUUUUU y
bUUUUUUUU z
bUUUUUUUU {
U|
U}
U!"
U""
U#"
bUUUUUUUU $"
bUUUUUUUU %"
0&"
0'"
bUUUUU ("
bUU )"
bUU *"
bUU +"
bUU ,"
bUU -"
0."
U/"
bUUUUUUUU 0"
bUUUUUUUU 1"
bUUUUUUUU 2"
U3"
U4"
U5"
U6"
U7"
08"
U9"
bUUUUUUUU :"
bUUUUUUUU ;"
bUUUUUUUU <"
U="
U>"
U?"
U@"
UA"
0B"
UC"
bUUUUUUUU D"
bUUUUUUUU E"
bUUUUUUUU F"
UG"
UH"
UI"
UJ"
UK"
bUUUUUUUU L"
bUUUUUUUU M"
bUUUUUUUU N"
UO"
UP"
UQ"
#20000000
1!
1+
05
0O
1Q
0T
0^
b00000000 a
b00000000 c
b00000000 e
b00000000 g
1j
1l
1m
0n
1."
0@"
1B"
0J"
#40000000
0!
0+
0Q
0m
0."
0B"
#60000000
1!
1*
1+
14
1Q
1m
b0UUUU ("
1."
1B"
1Q"
#80000000
0!
0+
0Q
0m
0."
0B"
#100000000
1!
1+
1Q
1m
1."
1B"
#120000000
0!
0+
0Q
0m
0."
0B"
#140000000
1!
1+
1Q
1m
1."
1B"
#160000000
0!
1"
0+
1,
0Q
1R
0m
0."
0B"
#180000000
1!
1+
1Q
1^
1m
1."
1B"
#200000000
0!
0+
0Q
0m
0."
0B"
#220000000
1!
1+
1Q
0j
0l
1m
1."
1B"
#240000000
0!
b11101111 #
0+
b11101111 -
0Q
b11101111 S
0m
0."
0B"
#260000000
1!
1+
1Q
b11101111 e
1l
1m
1."
1B"
#280000000
0!
0+
0Q
0m
0."
0B"
#300000000
1!
1+
1Q
1m
1."
1B"
#320000000
0!
0"
b00000000 #
0+
0,
b00000000 -
0Q
0R
b00000000 S
0m
0."
0B"
#340000000
1!
1+
1Q
0^
1_
b00000000 b
b00000000 e
b11101111 f
1i
1m
1."
1B"
#360000000
0!
0+
0Q
0m
0."
0B"
#380000000
1!
1+
b00010000 6
b10000000 7
08
09
1:
0;
0<
1=
1>
1Q
b00010000 U
b10000000 V
0W
0X
1Y
0Z
0[
1\
1]
0i
0l
1m
b00010000 o
b10000000 p
0q
0r
1s
0t
0u
1v
1w
1."
1B"
#400000000
0!
b11011111 #
0+
b11011111 -
0Q
b11011111 S
0m
0."
0B"
#420000000
1!
1+
1Q
b11011111 e
1l
1m
1."
1B"
#440000000
0!
0+
0Q
0m
0."
0B"
#460000000
1!
1+
15
1Q
1T
1m
1n
1."
1B"
#480000000
0!
1"
b00000000 #
0+
1,
b00000000 -
0Q
1R
b00000000 S
0m
0."
0B"
#500000000
1!
1+
1Q
1^
0_
b00000000 e
b11011111 f
1i
1m
b10000000 $"
b10000000 %"
1&"
1'"
b10UUU ("
b1U )"
b0U *"
b0U +"
b1U ,"
b1U -"
1."
1B"
#520000000
0!
0+
0Q
0m
0."
0B"
#540000000
1!
1+
05
0:
1;
1Q
0T
0Y
1Z
0i
0l
1m
0n
0s
1t
1."
1B"
#560000000
0!
b01111111 #
0+
b01111111 -
0Q
b01111111 S
0m
0."
0B"
#580000000
1!
1+
1Q
b01111111 e
1l
1m
b010UU ("
1."
1B"
#600000000
0!
0+
0Q
0m
0."
0B"
#620000000
1!
1+
15
1Q
1T
1m
1n
1."
1B"
#640000000
0!
0"
b00000000 #
0+
0,
b00000000 -
0Q
0R
b00000000 S
0m
0."
0B"
#660000000
1!
1+
b10000000 A
b10000000 B
1Q
0^
1_
b00000000 e
b01111111 f
1i
1m
b10000000 z
b10000000 {
b1010U ("
b01 )"
b10 *"
b00 +"
b11 ,"
b11 -"
1."
b10000000 1"
b10000000 2"
1B"
#680000000
0!
0+
0Q
0m
0."
0B"
#700000000
1!
1+
05
0;
1<
b10000000 J
b10000000 K
1Q
0T
0Z
1[
0i
0l
1m
0n
0t
1u
1."
b10000000 ;"
b10000000 <"
1B"
b10000000 E"
b10000000 F"
#720000000
0!
b11111111 #
0+
b11111111 -
0Q
b11111111 S
0m
0."
0B"
#740000000
1!
b10000000 &
b10000000 '
1+
b10000000 0
b10000000 1
1Q
b11111111 e
1l
1m
b01010 ("
1."
1B"
b10000000 M"
b10000000 N"
#760000000
0!
0+
0Q
0m
0."
0B"
#780000000
1!
1+
15
1Q
1T
1m
1n
1."
1B"
#800000000
0!
1"
b00000001 #
0+
1,
b00000001 -
0Q
1R
b00000001 S
0m
0."
0B"
#820000000
1!
1+
0?
b00010000 @
1C
0D
0E
1F
1G
1Q
1^
0_
b00000001 a
b00000001 c
b00000000 e
b11111111 f
1i
1m
0x
b00010000 y
1|
0}
0!"
1""
1#"
b10101 ("
b00 )"
b01 *"
b10 +"
1."
0/"
b00010000 0"
13"
04"
05"
16"
17"
1B"
#840000000
0!
0+
0Q
0m
0."
0B"
#860000000
1!
1+
05
0<
0H
b00010000 I
1L
0M
0N
1P
1Q
0T
0[
b00000001 g
0i
0l
1m
0n
0u
1."
09"
b00010000 :"
1="
0>"
0?"
1A"
1B"
0C"
b00010000 D"
1G"
0H"
0I"
1K"
#880000000
0!
0+
0Q
0m
0."
0B"
#900000000
1!
b00010000 %
0(
1)
1+
b00010000 /
02
13
1?
1Q
b00000000 c
b00000001 e
b00000000 g
1l
1m
1x
b01010 ("
1."
1/"
1B"
b00010000 L"
0O"
1P"
#920000000
0!
0+
0Q
0m
0."
0B"
#940000000
1!
1+
15
1H
1Q
1T
1m
1n
1."
19"
1B"
1C"
#960000000
0!
0"
b00000010 #
0+
0,
b00000010 -
0Q
0R
b00000010 S
0m
0."
0B"
#980000000
1!
1(
1+
12
0?
0C
1D
1Q
0^
1_
b00000010 a
b00000001 b
b00000010 c
b00000000 e
b00000001 f
1i
1m
0x
0|
1}
b10101 ("
b00 *"
b01 +"
1."
0/"
03"
14"
1B"
1O"
#1000000000
0!
0+
0Q
0m
0."
0B"
#1020000000
1!
1+
05
b00000001 6
b00000001 7
18
0=
0H
0L
1M
1Q
0T
b00000001 U
b00000001 V
1W
0\
b00000010 g
0i
0l
1m
0n
b00000001 o
b00000001 p
1q
0v
1."
09"
0="
1>"
1B"
0C"
0G"
1H"
#1040000000
0!
0+
0Q
0m
0."
0B"
#1060000000
1!
0(
1+
02
1?
1Q
b00000000 c
b00000010 e
b00000000 g
1l
1m
1x
b01010 ("
1."
1/"
1B"
0O"
#1080000000
0!
0+
0Q
0m
0."
0B"
#1100000000
1!
1+
15
1H
1Q
1T
1m
1n
1."
19"
1B"
1C"
#1120000000
0!
1"
b00000100 #
0+
1,
b00000100 -
0Q
1R
b00000100 S
0m
0."
0B"
#1140000000
1!
1(
1+
12
0?
0D
1E
1Q
1^
0_
b00000100 a
b00000010 b
b00000100 c
b00000000 e
b00000010 f
1i
1m
0x
0}
1!"
b00000001 %"
0&"
b10101 ("
b00 +"
b01 ,"
1."
0/"
04"
15"
1B"
1O"
#1160000000
0!
0+
0Q
0m
0."
0B"
#1180000000
1!
1+
05
b00000010 6
b00000010 7
08
0H
0M
1N
1Q
0T
b00000010 U
b00000010 V
0W
b00000100 g
0i
0l
1m
0n
b00000010 o
b00000010 p
0q
1."
09"
0>"
1?"
1B"
0C"
0H"
1I"
#1200000000
0!
0+
0Q
0m
0."
0B"
#1220000000
1!
0(
0)
1+
02
03
1?
1Q
b00000000 c
b00000100 e
b00000000 g
1l
1m
1x
b01010 ("
1."
1/"
1B"
0O"
0P"
#1240000000
0!
0+
0Q
0m
0."
0B"
#1260000000
1!
1+
15
1H
1Q
1T
1m
1n
1."
19"
1B"
1C"
#1280000000
0!
0+
0Q
0m
0."
0B"
#1300000000
1!
1(
1+
12
0?
0E
1Q
b00000000 a
b00000000 e
1j
1m
0x
0!"
b00000010 $"
1&"
b10101 ("
b00 ,"
1."
0/"
05"
1B"
1O"
#1320000000
0!
0"
b00001000 #
0+
0,
b00001000 -
0Q
0R
b00001000 S
0m
0."
0B"
#1340000000
1!
1+
05
0>
0H
0N
1Q
0T
0]
0^
b00001000 a
b00001000 c
1m
0n
0w
1."
09"
0?"
1B"
0C"
0I"
#1360000000
0!
0+
0Q
0m
0."
0B"
#1380000000
1!
0(
1)
1+
02
13
1?
1Q
b00001000 g
0j
0l
1m
1x
b01010 ("
1."
1/"
1B"
0O"
1P"
#1400000000
0!
0+
0Q
0m
0."
0B"
#1420000000
1!
1+
1H
1Q
b00000000 c
b00001000 e
b00000000 g
1l
1m
1."
19"
1B"
1C"
#1440000000
0!
0+
0Q
0m
0."
0B"
#1460000000
1!
1(
1+
12
1Q
1m
1."
1B"
1O"
#1480000000
0!
1"
b00010000 #
0+
1,
b00010000 -
0Q
1R
b00010000 S
0m
0."
0B"
#1500000000
1!
1+
1Q
1^
b00010000 a
b00001000 b
b00010000 c
b00000000 e
b00001000 f
1i
1m
1."
1B"
#1520000000
0!
0+
0Q
0m
0."
0B"
#1540000000
1!
1+
b00001000 6
b00001000 7
1>
1Q
b00001000 U
b00001000 V
1]
b00010000 g
0i
0l
1m
b00001000 o
b00001000 p
1w
1."
1B"
#1560000000
0!
0+
0Q
0m
0."
0B"
#1580000000
1!
1+
1Q
b00000000 c
b00010000 e
b00000000 g
1l
1m
1."
1B"
#1600000000
0!
0+
0Q
0m
0."
0B"
#1620000000
1!
1+
15
1Q
1T
1m
1n
1."
1B"
#1640000000
0!
0"
b00100000 #
0+
0,
b00100000 -
0Q
0R
b00100000 S
0m
0."
0B"
#1660000000
1!
1+
0?
b00000001 @
b00000010 A
b00000001 B
0F
1Q
0^
1_
b00100000 a
b00010000 b
b00100000 c
b00000000 e
b00010000 f
1i
1m
0x
b00000001 y
b00000010 z
b00000001 {
0""
b00001000 $"
0'"
b10101 ("
1."
0/"
b00000001 0"
b00000010 1"
b00000001 2"
06"
1B"
#1680000000
0!
0+
0Q
0m
0."
0B"
#1700000000
1!
1+
05
b00010000 6
b00010000 7
18
0H
b00000001 I
b00000010 J
b00000001 K
1Q
0T
b00010000 U
b00010000 V
1W
b00100000 g
0i
0l
1m
0n
b00010000 o
b00010000 p
1q
1."
09"
b00000001 :"
b00000010 ;"
b00000001 <"
1B"
0C"
b00000001 D"
b00000010 E"
b00000001 F"
#1720000000
0!
0+
0Q
0m
0."
0B"
#1740000000
1!
b00000001 %
b00000010 &
b00000001 '
0(
1+
b00000001 /
b00000010 0
b00000001 1
02
1?
1Q
b00000000 c
b00100000 e
b00000000 g
1l
1m
1x
b01010 ("
1."
1/"
1B"
b00000001 L"
b00000010 M"
b00000001 N"
0O"
#1760000000
0!
0+
0Q
0m
0."
0B"
#1780000000
1!
1+
15
1H
1Q
1T
1m
1n
1."
19"
1B"
1C"
#1800000000
0!
1"
b01000000 #
0+
1,
b01000000 -
0Q
1R
b01000000 S
0m
0."
0B"
#1820000000
1!
1(
1+
12
0?
b00000010 @
1Q
1^
0_
b01000000 a
b00100000 b
b01000000 c
b00000000 e
b00100000 f
1i
1m
0x
b00000010 y
b00010000 %"
1'"
b10101 ("
1."
0/"
b00000010 0"
1B"
1O"
#1840000000
0!
0+
0Q
0m
0."
0B"
#1860000000
1!
1+
05
b00100000 6
b00100000 7
08
0H
b00000010 I
1Q
0T
b00100000 U
b00100000 V
0W
b01000000 g
0i
0l
1m
0n
b00100000 o
b00100000 p
0q
1."
09"
b00000010 :"
1B"
0C"
b00000010 D"
#1880000000
0!
0+
0Q
0m
0."
0B"
#1900000000
1!
b00000010 %
0(
1+
b00000010 /
02
1?
1Q
b00000000 c
b01000000 e
b00000000 g
1l
1m
1x
b01010 ("
1."
1/"
1B"
b00000010 L"
0O"
#1920000000
0!
0+
0Q
0m
0."
0B"
#1940000000
1!
1+
15
1H
1Q
1T
1m
1n
1."
19"
1B"
1C"
#1960000000
0!
0"
b10001000 #
0+
0,
b10001000 -
0Q
0R
b10001000 S
0m
0."
0B"
#1980000000
1!
1(
1+
12
0?
b00001000 @
b00001000 A
b00010000 B
1Q
0^
1_
b10001000 a
b01000000 b
b10001000 c
b00000000 e
b01000000 f
1i
1m
0x
b00001000 y
b00001000 z
b00010000 {
b00100000 $"
0'"
b10101 ("
1."
0/"
b00001000 0"
b00001000 1"
b00010000 2"
1B"
1O"
#2000000000
0!
0+
0Q
0m
0."
0B"
#2020000000
1!
1+
05
b01000000 6
b01000000 7
18
0H
b00001000 I
b00001000 J
b00010000 K
1Q
0T
b01000000 U
b01000000 V
1W
b10001000 g
0i
0l
1m
0n
b01000000 o
b01000000 p
1q
1."
09"
b00001000 :"
b00001000 ;"
b00010000 <"
1B"
0C"
b00001000 D"
b00001000 E"
b00010000 F"
#2040000000
0!
0+
0Q
0m
0."
0B"
#2060000000
1!
b00001000 %
b00001000 &
b00010000 '
0(
1+
b00001000 /
b00001000 0
b00010000 1
02
1?
1Q
b00000000 c
b10001000 e
b00000000 g
1l
1m
1x
b01010 ("
1."
1/"
1B"
b00001000 L"
b00001000 M"
b00010000 N"
0O"
#2080000000
0!
0+
0Q
0m
0."
0B"
#2100000000
1!
1+
15
1H
1Q
1T
1m
1n
1."
19"
1B"
1C"
#2120000000
0!
1"
b00000000 #
0+
1,
b00000000 -
0Q
1R
b00000000 S
0m
0."
0B"
#2140000000
1!
1(
1+
12
0?
b00010000 @
1Q
1^
0_
b00000000 a
b10001000 b
b00000000 e
b10001000 f
1i
1m
0x
b00010000 y
b01000000 %"
1'"
b10101 ("
1."
0/"
b00010000 0"
1B"
1O"
#2160000000
0!
0+
0Q
0m
0."
0B"
#2180000000
1!
1+
05
b10001000 6
b10001000 7
08
0H
b00010000 I
1Q
0T
b10001000 U
b10001000 V
0W
0i
0l
1m
0n
b10001000 o
b10001000 p
0q
1."
09"
b00010000 :"
1B"
0C"
b00010000 D"
#2200000000
0!
0+
0Q
0m
0."
0B"
#2220000000
1!
b00010000 %
0(
1+
b00010000 /
02
1?
1Q
1l
1m
1x
b01010 ("
1."
1/"
1B"
b00010000 L"
0O"
#2240000000
0!
0+
0Q
0m
0."
0B"
#2260000000
1!
1+
15
1H
1Q
1T
1m
1n
1."
19"
1B"
1C"
#2280000000
0!
0"
0+
0,
0Q
0R
0m
0."
0B"
#2300000000
1!
1(
1+
12
0?
b00100000 @
b00100000 A
b01000000 B
1Q
0^
1_
b00000000 b
b00000000 f
1i
1m
0x
b00100000 y
b00100000 z
b01000000 {
b10001000 $"
0'"
b10101 ("
1."
0/"
b00100000 0"
b00100000 1"
b01000000 2"
1B"
1O"
#2320000000
0!
0+
0Q
0m
0."
0B"
#2340000000
1!
1+
05
b00010000 6
b10000000 7
19
1:
1;
1<
1=
0H
b00100000 I
b00100000 J
b01000000 K
1Q
0T
b00010000 U
b10000000 V
1X
1Y
1Z
1[
1\
0i
0l
1m
0n
b00010000 o
b10000000 p
1r
1s
1t
1u
1v
1."
09"
b00100000 :"
b00100000 ;"
b01000000 <"
1B"
0C"
b00100000 D"
b00100000 E"
b01000000 F"
#2360000000
0!
0+
0Q
0m
0."
0B"
#2380000000
1!
b00100000 %
b00100000 &
b01000000 '
0(
1+
b00100000 /
b00100000 0
b01000000 1
02
1?
1Q
1l
1m
1x
b01010 ("
1."
1/"
1B"
b00100000 L"
b00100000 M"
b01000000 N"
0O"
#2400000000
0!
0+
0Q
0m
0."
0B"
#2420000000
1!
1+
15
1H
1Q
1T
1m
1n
1."
19"
1B"
1C"
#2440000000
0!
1"
0+
1,
0Q
1R
0m
0."
0B"
#2460000000
1!
1(
1+
12
0?
b01000000 @
1Q
1^
0_
1i
1m
0x
b01000000 y
b10000000 $"
b10000000 %"
1'"
b10101 ("
b10 )"
b10 *"
b10 +"
b10 ,"
1."
0/"
b01000000 0"
1B"
1O"
#2480000000
0!
0+
0Q
0m
0."
0B"
#2500000000
1!
1+
05
0H
b01000000 I
1Q
0T
0i
0l
1m
0n
1."
09"
b01000000 :"
1B"
0C"
b01000000 D"
#2520000000
0!
0+
0Q
0m
0."
0B"
#2540000000
1!
b01000000 %
0(
1+
b01000000 /
02
1?
1Q
1l
1m
1x
b01010 ("
1."
1/"
1B"
b01000000 L"
0O"
#2560000000
0!
0+
0Q
0m
0."
0B"
#2580000000
1!
1+
15
1H
1Q
1T
1m
1n
1."
19"
1B"
1C"
#2600000000
0!
0"
0+
0,
0Q
0R
0m
0."
0B"
#2620000000
1!
1(
1+
12
0?
b10001000 @
b10000000 A
b10000000 B
1Q
0^
1_
1i
1m
0x
b10001000 y
b10000000 z
b10000000 {
b10101 ("
b11 )"
b11 *"
b11 +"
b11 ,"
1."
0/"
b10001000 0"
b10000000 1"
b10000000 2"
1B"
1O"
#2640000000
0!
0+
0Q
0m
0."
0B"
#2660000000
1!
1+
05
0H
b10001000 I
b10000000 J
b10000000 K
1Q
0T
0i
0l
1m
0n
1."
09"
b10001000 :"
b10000000 ;"
b10000000 <"
1B"
0C"
b10001000 D"
b10000000 E"
b10000000 F"
#2680000000
0!
0+
0Q
0m
0."
0B"
#2700000000
1!
b10001000 %
b10000000 &
b10000000 '
0(
1+
b10001000 /
b10000000 0
b10000000 1
02
1?
1Q
1l
1m
1x
b01010 ("
1."
1/"
1B"
b10001000 L"
b10000000 M"
b10000000 N"
0O"
#2720000000
0!
0+
0Q
0m
0."
0B"
#2740000000
1!
1+
15
1H
1Q
1T
1m
1n
1."
19"
1B"
1C"
#2760000000
0!
1"
0+
1,
0Q
1R
0m
0."
0B"
#2780000000
1!
1(
1+
12
0?
b00010000 @
1C
1D
1E
1F
1Q
1^
0_
1i
1m
0x
b00010000 y
1|
1}
1!"
1""
b10101 ("
1."
0/"
b00010000 0"
13"
14"
15"
16"
1B"
1O"
#2800000000
0!
0+
0Q
0m
0."
0B"
#2820000000
1!
1+
05
0H
b00010000 I
1L
1M
1N
1Q
0T
0i
0l
1m
0n
1."
09"
b00010000 :"
1="
1>"
1?"
1B"
0C"
b00010000 D"
1G"
1H"
1I"
#2840000000
0!
0+
0Q
0m
0."
0B"
#2860000000
1!
b00010000 %
0(
0)
1+
b00010000 /
02
03
1?
1Q
1l
1m
1x
b01010 ("
1."
1/"
1B"
b00010000 L"
0O"
0P"
#2880000000
0!
0+
0Q
0m
0."
0B"
#2900000000
1!
1+
15
1H
1Q
1T
1m
1n
1."
19"
1B"
1C"
#2920000000
0!
0"
0+
0,
0Q
0R
0m
0."
0B"
#2940000000
1!
1(
1+
12
0?
1Q
0^
1_
1i
1m
0x
b10101 ("
1."
0/"
1B"
1O"
#2960000000
0!
0+
0Q
0m
0."
0B"
#2980000000
1!
1+
05
0H
1Q
0T
0i
0l
1m
0n
1."
09"
1B"
0C"
#3000000000
0!
0+
0Q
0m
0."
0B"
#3020000000
1!
0(
1+
02
1?
1Q
1l
1m
1x
b01010 ("
1."
1/"
1B"
0O"
#3040000000
0!
0+
0Q
0m
0."
0B"
#3060000000
1!
1+
15
1H
1Q
1T
1m
1n
1."
19"
1B"
1C"
#3080000000
0!
1"
0+
1,
0Q
1R
0m
0."
0B"
#3100000000
1!
1(
1+
12
0?
1Q
1^
0_
1i
1m
0x
b10101 ("
1."
0/"
1B"
1O"
#3120000000
0!
0+
0Q
0m
0."
0B"
#3140000000
1!
1+
05
0H
1Q
0T
0i
0l
1m
0n
1."
09"
1B"
0C"
#3160000000
0!
0+
0Q
0m
0."
0B"
#3180000000
1!
0(
1+
02
1?
1Q
1l
1m
1x
b01010 ("
1."
1/"
1B"
0O"
#3200000000
0!
0+
0Q
0m
0."
0B"
#3220000000
1!
1+
15
1H
1Q
1T
1m
1n
1."
19"
1B"
1C"
#3240000000
0!
0"
0+
0,
0Q
0R
0m
0."
0B"
#3260000000
1!
1(
1+
12
0?
1Q
0^
1_
1i
1m
0x
b10101 ("
1."
0/"
1B"
1O"
#3280000000
0!
0+
0Q
0m
0."
0B"
#3300000000
1!
1+
05
0H
1Q
0T
0i
0l
1m
0n
1."
09"
1B"
0C"
#3320000000
0!
0+
0Q
0m
0."
0B"
#3340000000
1!
0(
1+
02
1?
1Q
1l
1m
1x
b01010 ("
1."
1/"
1B"
0O"
