HDL/simulation/gc_dv_top_level_tb02.vcd
$date
  Sat Mar  6 15:31:35 2021
$end
$version
  GHDL v0
$end
$timescale
  1 fs
$end
$scope module standard $end
$upscope $end
$scope module std_logic_1164 $end
$upscope $end
$scope module numeric_std $end
$upscope $end
$scope module gc_dv_top_level_tb $end
$var reg 1 ! vclk_tb $end
$var reg 1 " vphase_tb $end
$var reg 8 # vdata_tb[7:0] $end
$var reg 1 $ rgb_out_en_tb $end
$var reg 8 % g_y_dac_tb[7:0] $end
$var reg 8 & b_cb_dac_tb[7:0] $end
$var reg 8 ' r_cr_dac_tb[7:0] $end
$var reg 1 ( clk_dac_tb $end
$var reg 1 ) nc_sync_dac_tb $end
$var reg 1 * nblanking_tb $end
$scope module uut $end
$var reg 1 + vclk $end
$var reg 1 , vphase $end
$var reg 8 - vdata[7:0] $end
$var reg 1 . rgb_out_en $end
$var reg 8 / g_y_dac[7:0] $end
$var reg 8 0 b_cb_dac[7:0] $end
$var reg 8 1 r_cr_dac[7:0] $end
$var reg 1 2 clk_dac $end
$var reg 1 3 nc_sync_dac $end
$var reg 1 4 nblanking_dac $end
$var reg 1 5 pclk_decode $end
$var reg 8 6 y_decode[7:0] $end
$var reg 8 7 cbcr_decode[7:0] $end
$var reg 1 8 is_cr_decode $end
$var reg 1 9 is_odd_decode $end
$var reg 1 : h_sync_decode $end
$var reg 1 ; v_sync_decode $end
$var reg 1 < c_sync_decode $end
$var reg 1 = blanking_decode $end
$var reg 1 > dvalid_decode $end
$var reg 1 ? pclk_444 $end
$var reg 8 @ y_444[7:0] $end
$var reg 8 A cb_444[7:0] $end
$var reg 8 B cr_444[7:0] $end
$var reg 1 C h_sync_444 $end
$var reg 1 D v_sync_444 $end
$var reg 1 E c_sync_444 $end
$var reg 1 F blanking_444 $end
$var reg 1 G dvalid_444 $end
$var reg 1 H pclk_cconv $end
$var reg 8 I g_y_cconv[7:0] $end
$var reg 8 J b_cb_cconv[7:0] $end
$var reg 8 K r_cr_cconv[7:0] $end
$var reg 1 L h_sync_cconv $end
$var reg 1 M v_sync_cconv $end
$var reg 1 N c_sync_cconv $end
$var reg 1 O blanking_cconv $end
$var reg 1 P dvalid_cconv $end
$scope module frame_decode $end
$var reg 1 Q vclk $end
$var reg 1 R vphase $end
$var reg 8 S vdata[7:0] $end
$var reg 1 T pclk $end
$var reg 8 U y[7:0] $end
$var reg 8 V cbcr[7:0] $end
$var reg 1 W is_cr $end
$var reg 1 X is_odd $end
$var reg 1 Y h_sync $end
$var reg 1 Z v_sync $end
$var reg 1 [ c_sync $end
$var reg 1 \ blanking $end
$var reg 1 ] dvalid $end
$comment vdata_buffer is not handled $end
$var reg 1 ^ last_vphase $end
$var integer 32 _ vsample_count $end
$var reg 1 ` last_vmode $end
$var reg 1 a last_dvalid $end
$upscope $end
$scope module chroma_upsampling $end
$var reg 1 b vclk $end
$var reg 1 c pclk $end
$var reg 8 d y[7:0] $end
$var reg 8 e cbcr[7:0] $end
$var reg 1 f is_cr $end
$var reg 1 g is_odd $end
$var reg 1 h h_sync $end
$var reg 1 i v_sync $end
$var reg 1 j c_sync $end
$var reg 1 k blanking $end
$var reg 1 l dvalid $end
$var reg 1 m pclk_out $end
$var reg 8 n y_out[7:0] $end
$var reg 8 o cb_out[7:0] $end
$var reg 8 p cr_out[7:0] $end
$var reg 1 q h_sync_out $end
$var reg 1 r v_sync_out $end
$var reg 1 s c_sync_out $end
$var reg 1 t blanking_out $end
$var reg 1 u dvalid_out $end
$var reg 8 v cb_sample[7:0] $end
$var reg 8 w cr_sample[7:0] $end
$var reg 1 x cb_loaded $end
$var reg 1 y cr_loaded $end
$comment y_pipe is not handled $end
$var reg 5 z pclk_pipe[0:4] $end
$var reg 2 { h_sync_pipe[0:1] $end
$var reg 2 | v_sync_pipe[0:1] $end
$var reg 2 } c_sync_pipe[0:1] $end
$var reg 2 !" blanking_pipe[0:1] $end
$var reg 2 "" dvalid_pipe[0:1] $end
$upscope $end
$scope module color_space_converter $end
$var reg 1 #" vclk $end
$var reg 1 $" pclk $end
$var reg 8 %" y[7:0] $end
$var reg 8 &" cb[7:0] $end
$var reg 8 '" cr[7:0] $end
$var reg 1 (" h_sync $end
$var reg 1 )" v_sync $end
$var reg 1 *" c_sync $end
$var reg 1 +" blanking $end
$var reg 1 ," dvalid $end
$var reg 1 -" rgb_out_en $end
$var reg 1 ." pclk_out $end
$var reg 8 /" g_y_out[7:0] $end
$var reg 8 0" b_cb_out[7:0] $end
$var reg 8 1" r_cr_out[7:0] $end
$var reg 1 2" h_sync_out $end
$var reg 1 3" v_sync_out $end
$var reg 1 4" c_sync_out $end
$var reg 1 5" blanking_out $end
$var reg 1 6" dvalid_out $end
$upscope $end
$scope module output_video_samples_to_dac $end
$var reg 1 7" vclk $end
$var reg 1 8" pclk $end
$var reg 8 9" g_y[7:0] $end
$var reg 8 :" b_cb[7:0] $end
$var reg 8 ;" r_cr[7:0] $end
$var reg 1 <" h_sync $end
$var reg 1 =" v_sync $end
$var reg 1 >" c_sync $end
$var reg 1 ?" blanking $end
$var reg 1 @" dvalid $end
$var reg 8 A" g_y_dac[7:0] $end
$var reg 8 B" b_cb_dac[7:0] $end
$var reg 8 C" r_cr_dac[7:0] $end
$var reg 1 D" clk_dac $end
$var reg 1 E" nc_sync_dac $end
$var reg 1 F" nblanking_dac $end
$upscope $end
$upscope $end
$upscope $end
$enddefinitions $end
#0
0!
0"
b00000000 #
0$
bUUUUUUUU %
bUUUUUUUU &
bUUUUUUUU '
U(
U)
U*
0+
0,
b00000000 -
0.
bUUUUUUUU /
bUUUUUUUU 0
bUUUUUUUU 1
U2
U3
U4
U5
bUUUUUUUU 6
bUUUUUUUU 7
U8
U9
U:
U;
U<
U=
U>
U?
bUUUUUUUU @
bUUUUUUUU A
bUUUUUUUU B
UC
UD
UE
UF
UG
UH
bUUUUUUUU I
bUUUUUUUU J
bUUUUUUUU K
UL
UM
UN
UO
UP
0Q
0R
b00000000 S
UT
bUUUUUUUU U
bUUUUUUUU V
UW
UX
UY
UZ
U[
U\
U]
0^
b0 _
0`
0a
0b
Uc
bUUUUUUUU d
bUUUUUUUU e
Uf
Ug
Uh
Ui
Uj
Uk
Ul
Um
bUUUUUUUU n
bUUUUUUUU o
bUUUUUUUU p
Uq
Ur
Us
Ut
Uu
bUUUUUUUU v
bUUUUUUUU w
0x
0y
bUUUUU z
bUU {
bUU |
bUU }
bUU !"
bUU ""
0#"
U$"
bUUUUUUUU %"
bUUUUUUUU &"
bUUUUUUUU '"
U("
U)"
U*"
U+"
U,"
0-"
U."
bUUUUUUUU /"
bUUUUUUUU 0"
bUUUUUUUU 1"
U2"
U3"
U4"
U5"
U6"
07"
U8"
bUUUUUUUU 9"
bUUUUUUUU :"
bUUUUUUUU ;"
U<"
U="
U>"
U?"
U@"
bUUUUUUUU A"
bUUUUUUUU B"
bUUUUUUUU C"
UD"
UE"
UF"
#20000000
1!
1+
05
0O
1Q
0T
b1 _
1b
0c
1#"
05"
17"
0?"
#40000000
0!
0+
0Q
0b
0#"
07"
#60000000
1!
1*
1+
14
1Q
b10 _
1b
b0UUUU z
1#"
17"
1F"
#80000000
0!
0+
0Q
0b
0#"
07"
#100000000
1!
1+
1Q
b11 _
1b
1#"
17"
#120000000
0!
0+
0Q
0b
0#"
07"
#140000000
1!
1+
1Q
b100 _
1b
1#"
17"
#160000000
0!
1"
0+
1,
0Q
1R
0b
0#"
07"
#180000000
1!
1+
b00010000 6
b10000000 7
08
19
1:
1;
1<
1=
1>
1Q
b00010000 U
b10000000 V
0W
1X
1Y
1Z
1[
1\
1]
1^
b1 _
1a
1b
b00010000 d
b10000000 e
0f
1g
1h
1i
1j
1k
1l
1#"
17"
#200000000
0!
0+
0Q
0b
0#"
07"
#220000000
1!
1+
1Q
b10 _
1b
1#"
17"
#240000000
0!
b11101111 #
0+
b11101111 -
0Q
b11101111 S
0b
0#"
07"
#260000000
1!
1+
15
1Q
1T
b11 _
1b
1c
1#"
17"
#280000000
0!
0+
0Q
0b
0#"
07"
#300000000
1!
1+
1Q
b100 _
1b
b10000000 v
b10000000 w
1x
1y
b10UUU z
b1U {
b1U |
b1U }
b1U !"
b1U ""
1#"
17"
#320000000
0!
0"
b00000000 #
0+
0,
b00000000 -
0Q
0R
b00000000 S
0b
0#"
07"
#340000000
1!
1+
05
09
0;
0<
1Q
0T
0X
1Y
0Z
0[
1\
1]
0^
b1 _
1b
0c
0g
0i
0j
1#"
17"
#360000000
0!
0+
0Q
0b
0#"
07"
#380000000
1!
1+
1Q
b10 _
1b
b010UU z
1#"
17"
#400000000
0!
b11011111 #
0+
b11011111 -
0Q
b11011111 S
0b
0#"
07"
#420000000
1!
1+
15
1Q
1T
b11 _
1b
1c
1#"
17"
#440000000
0!
0+
0Q
0b
0#"
07"
#460000000
1!
1+
b10000000 A
b10000000 B
1Q
b100 _
1b
b10000000 o
b10000000 p
b1010U z
b11 {
b01 |
b01 }
b11 !"
b11 ""
1#"
b10000000 &"
b10000000 '"
17"
#480000000
0!
1"
b00000000 #
0+
1,
b00000000 -
0Q
1R
b00000000 S
0b
0#"
07"
#500000000
1!
1+
05
0:
1;
b10000000 J
b10000000 K
1Q
0T
0Y
1Z
1\
1]
1^
b1 _
1b
0c
0h
1i
1#"
b10000000 0"
b10000000 1"
17"
b10000000 :"
b10000000 ;"
#520000000
0!
0+
0Q
0b
0#"
07"
#540000000
1!
b10000000 &
b10000000 '
1+
b10000000 0
b10000000 1
1Q
b10 _
1b
b01010 z
1#"
17"
b10000000 B"
b10000000 C"
#560000000
0!
b01111111 #
0+
b01111111 -
0Q
b01111111 S
0b
0#"
07"
#580000000
1!
1+
15
1Q
1T
b11 _
1b
1c
1#"
17"
#600000000
0!
0+
0Q
0b
0#"
07"
#620000000
1!
1+
0?
b00010000 @
1C
1D
1E
1F
1G
1Q
b100 _
1b
0m
b00010000 n
1q
1r
1s
1t
1u
b10101 z
b01 {
b10 |
b00 }
1#"
0$"
b00010000 %"
1("
1)"
1*"
1+"
1,"
17"
#640000000
0!
0"
b00000000 #
0+
0,
b00000000 -
0Q
0R
b00000000 S
0b
0#"
07"
#660000000
1!
1+
05
0;
1<
0H
b00010000 I
1L
1M
1N
1P
1Q
0T
0Z
1[
1\
1]
0^
b1 _
1b
0c
0i
1j
1#"
0."
b00010000 /"
12"
13"
14"
16"
17"
08"
b00010000 9"
1<"
1="
1>"
1@"
#680000000
0!
0+
0Q
0b
0#"
07"
#700000000
1!
b00010000 %
0(
0)
1+
b00010000 /
02
03
1?
1Q
b10 _
1b
1m
b01010 z
1#"
1$"
17"
b00010000 A"
0D"
0E"
#720000000
0!
b11111111 #
0+
b11111111 -
0Q
b11111111 S
0b
0#"
07"
#740000000
1!
1+
15
1H
1Q
1T
b11 _
1b
1c
1#"
1."
17"
18"
#760000000
0!
0+
0Q
0b
0#"
07"
#780000000
1!
1(
1+
12
0?
0D
0E
1Q
b100 _
1b
0m
0r
0s
b10101 z
b00 {
b01 |
b10 }
1#"
0$"
0)"
0*"
17"
1D"
#800000000
0!
1"
b00000001 #
0+
1,
b00000001 -
0Q
1R
b00000001 S
0b
0#"
07"
#820000000
1!
1+
05
0<
0H
0M
0N
1Q
0T
0[
1\
1]
1^
b1 _
1b
0c
0j
1#"
0."
03"
04"
17"
08"
0="
0>"
#840000000
0!
0+
0Q
0b
0#"
07"
#860000000
1!
0(
1)
1+
02
13
1?
1Q
b10 _
1b
1m
b01010 z
1#"
1$"
17"
0D"
1E"
#880000000
0!
0+
0Q
0b
0#"
07"
#900000000
1!
1+
15
1H
1Q
1T
b11 _
1b
1c
1#"
1."
17"
18"
#920000000
0!
0+
0Q
0b
0#"
07"
#940000000
1!
1(
1+
12
0?
0C
1D
1Q
b100 _
1b
0m
0q
1r
b10101 z
b00 |
b01 }
1#"
0$"
0("
1)"
17"
1D"
#960000000
0!
0"
b00000010 #
0+
0,
b00000010 -
0Q
0R
b00000010 S
0b
0#"
07"
#980000000
1!
1+
05
b00000001 6
b00000001 7
18
0=
0H
0L
1M
1Q
0T
b00000001 U
b00000001 V
1W
0\
1]
0^
b1 _
1b
0c
b00000001 d
b00000001 e
1f
0k
1#"
0."
02"
13"
17"
08"
0<"
1="
#1000000000
0!
0+
0Q
0b
0#"
07"
#1020000000
1!
0(
1+
02
1?
1Q
b10 _
1b
1m
b01010 z
1#"
1$"
17"
0D"
#1040000000
0!
0+
0Q
0b
0#"
07"
#1060000000
1!
1+
15
1H
1Q
1T
b11 _
1b
1c
1#"
1."
17"
18"
#1080000000
0!
0+
0Q
0b
0#"
07"
#1100000000
1!
1(
1+
12
0?
0D
1E
1Q
b100 _
1b
0m
0r
1s
b00000001 w
0x
b10101 z
b00 }
b01 !"
1#"
0$"
0)"
1*"
17"
1D"
#1120000000
0!
1"
b00000100 #
0+
1,
b00000100 -
0Q
1R
b00000100 S
0b
0#"
07"
#1140000000
1!
1+
05
b00000010 6
b00000010 7
08
0H
0M
1N
1Q
0T
b00000010 U
b00000010 V
0W
1]
1^
b1 _
1b
0c
b00000010 d
b00000010 e
0f
1#"
0."
03"
14"
17"
08"
0="
1>"
#1160000000
0!
0+
0Q
0b
0#"
07"
#1180000000
1!
0(
0)
1+
02
03
1?
1Q
b10 _
1b
1m
b01010 z
1#"
1$"
17"
0D"
0E"
#1200000000
0!
0+
0Q
0b
0#"
07"
#1220000000
1!
1+
15
1H
1Q
1T
b11 _
1b
1c
1#"
1."
17"
18"
#1240000000
0!
0+
0Q
0b
0#"
07"
#1260000000
1!
1(
1+
12
0?
0E
1Q
b100 _
1b
0m
0s
b00000010 v
1x
b10101 z
b00 !"
1#"
0$"
0*"
17"
1D"
#1280000000
0!
0+
0Q
0b
0#"
07"
#1300000000
1!
1+
05
b00010000 6
b10000000 7
0>
0H
0N
1Q
0T
b00010000 U
b10000000 V
0]
0a
1b
0c
b00010000 d
b10000000 e
0l
1#"
0."
04"
17"
08"
0>"
#1320000000
0!
0"
b00001000 #
0+
0,
b00001000 -
0Q
0R
b00001000 S
0b
0#"
07"
#1340000000
1!
0(
1)
1+
02
13
b00000100 6
b00000100 7
18
1>
1?
1Q
b00000100 U
b00000100 V
1W
1]
0^
b1 _
1a
1b
b00000100 d
b00000100 e
1f
1l
1m
b01010 z
1#"
1$"
17"
0D"
1E"
#1360000000
0!
0+
0Q
0b
0#"
07"
#1380000000
1!
1+
1H
1Q
b10 _
1b
1#"
1."
17"
18"
#1400000000
0!
0+
0Q
0b
0#"
07"
#1420000000
1!
1(
1+
12
15
1Q
1T
b11 _
1b
1c
1#"
17"
1D"
#1440000000
0!
0+
0Q
0b
0#"
07"
#1460000000
1!
1+
0?
b00000001 @
b00000010 A
b00000001 B
0F
1Q
b100 _
1b
0m
b00000001 n
b00000010 o
b00000001 p
0t
b00000100 w
0x
b10101 z
1#"
0$"
b00000001 %"
b00000010 &"
b00000001 '"
0+"
17"
#1480000000
0!
1"
b00010000 #
0+
1,
b00010000 -
0Q
1R
b00010000 S
0b
0#"
07"
#1500000000
1!
1+
05
b00001000 6
b00001000 7
08
0H
b00000001 I
b00000010 J
b00000001 K
1Q
0T
b00001000 U
b00001000 V
0W
1]
1^
b1 _
1b
0c
b00001000 d
b00001000 e
0f
1#"
0."
b00000001 /"
b00000010 0"
b00000001 1"
17"
08"
b00000001 9"
b00000010 :"
b00000001 ;"
#1520000000
0!
0+
0Q
0b
0#"
07"
#1540000000
1!
b00000001 %
b00000010 &
b00000001 '
0(
1+
b00000001 /
b00000010 0
b00000001 1
02
1?
1Q
b10 _
1b
1m
b01010 z
1#"
1$"
17"
b00000001 A"
b00000010 B"
b00000001 C"
0D"
#1560000000
0!
0+
0Q
0b
0#"
07"
#1580000000
1!
1+
15
1H
1Q
1T
b11 _
1b
1c
1#"
1."
17"
18"
#1600000000
0!
0+
0Q
0b
0#"
07"
#1620000000
1!
1(
1+
12
0?
b00000010 @
1Q
b100 _
1b
0m
b00000010 n
b00001000 v
1x
b10101 z
1#"
0$"
b00000010 %"
17"
1D"
#1640000000
0!
0"
b00100000 #
0+
0,
b00100000 -
0Q
0R
b00100000 S
0b
0#"
07"
#1660000000
1!
1+
05
b00010000 6
b00010000 7
18
0H
b00000010 I
1Q
0T
b00010000 U
b00010000 V
1W
1]
0^
b1 _
1b
0c
b00010000 d
b00010000 e
1f
1#"
0."
b00000010 /"
17"
08"
b00000010 9"
#1680000000
0!
0+
0Q
0b
0#"
07"
#1700000000
1!
b00000010 %
0(
1+
b00000010 /
02
1?
1Q
b10 _
1b
1m
b01010 z
1#"
1$"
17"
b00000010 A"
0D"
#1720000000
0!
0+
0Q
0b
0#"
07"
#1740000000
1!
1+
15
1H
1Q
1T
b11 _
1b
1c
1#"
1."
17"
18"
#1760000000
0!
0+
0Q
0b
0#"
07"
#1780000000
1!
1(
1+
12
0?
b00000100 @
b00001000 A
b00000100 B
1Q
b100 _
1b
0m
b00000100 n
b00001000 o
b00000100 p
b00010000 w
0x
b10101 z
1#"
0$"
b00000100 %"
b00001000 &"
b00000100 '"
17"
1D"
#1800000000
0!
1"
b01000000 #
0+
1,
b01000000 -
0Q
1R
b01000000 S
0b
0#"
07"
#1820000000
1!
1+
05
b00100000 6
b00100000 7
08
0H
b00000100 I
b00001000 J
b00000100 K
1Q
0T
b00100000 U
b00100000 V
0W
1]
1^
b1 _
1b
0c
b00100000 d
b00100000 e
0f
1#"
0."
b00000100 /"
b00001000 0"
b00000100 1"
17"
08"
b00000100 9"
b00001000 :"
b00000100 ;"
#1840000000
0!
0+
0Q
0b
0#"
07"
#1860000000
1!
b00000100 %
b00001000 &
b00000100 '
0(
1+
b00000100 /
b00001000 0
b00000100 1
02
1?
1Q
b10 _
1b
1m
b01010 z
1#"
1$"
17"
b00000100 A"
b00001000 B"
b00000100 C"
0D"
#1880000000
0!
0+
0Q
0b
0#"
07"
#1900000000
1!
1+
15
1H
1Q
1T
b11 _
1b
1c
1#"
1."
17"
18"
#1920000000
0!
0+
0Q
0b
0#"
07"
#1940000000
1!
1(
1+
12
0?
b00001000 @
1Q
b100 _
1b
0m
b00001000 n
b00100000 v
1x
b10101 z
1#"
0$"
b00001000 %"
17"
1D"
#1960000000
0!
0"
b10001000 #
0+
0,
b10001000 -
0Q
0R
b10001000 S
0b
0#"
07"
#1980000000
1!
1+
05
b01000000 6
b01000000 7
18
0H
b00001000 I
1Q
0T
b01000000 U
b01000000 V
1W
1]
0^
b1 _
1b
0c
b01000000 d
b01000000 e
1f
1#"
0."
b00001000 /"
17"
08"
b00001000 9"
#2000000000
0!
0+
0Q
0b
0#"
07"
#2020000000
1!
b00001000 %
0(
1+
b00001000 /
02
1?
1Q
b10 _
1b
1m
b01010 z
1#"
1$"
17"
b00001000 A"
0D"
#2040000000
0!
0+
0Q
0b
0#"
07"
#2060000000
1!
1+
15
1H
1Q
1T
b11 _
1b
1c
1#"
1."
17"
18"
#2080000000
0!
0+
0Q
0b
0#"
07"
#2100000000
1!
1(
1+
12
0?
b00010000 @
b00100000 A
b00010000 B
1Q
b100 _
1b
0m
b00010000 n
b00100000 o
b00010000 p
b01000000 w
0x
b10101 z
1#"
0$"
b00010000 %"
b00100000 &"
b00010000 '"
17"
1D"
#2120000000
0!
1"
b00000000 #
0+
1,
b00000000 -
0Q
1R
b00000000 S
0b
0#"
07"
#2140000000
1!
1+
05
b10001000 6
b10001000 7
08
0H
b00010000 I
b00100000 J
b00010000 K
1Q
0T
b10001000 U
b10001000 V
0W
1]
1^
b1 _
1b
0c
b10001000 d
b10001000 e
0f
1#"
0."
b00010000 /"
b00100000 0"
b00010000 1"
17"
08"
b00010000 9"
b00100000 :"
b00010000 ;"
#2160000000
0!
0+
0Q
0b
0#"
07"
#2180000000
1!
b00010000 %
b00100000 &
b00010000 '
0(
1+
b00010000 /
b00100000 0
b00010000 1
02
1?
1Q
b10 _
1b
1m
b01010 z
1#"
1$"
17"
b00010000 A"
b00100000 B"
b00010000 C"
0D"
#2200000000
0!
0+
0Q
0b
0#"
07"
#2220000000
1!
1+
15
1H
1Q
1T
b11 _
1b
1c
1#"
1."
17"
18"
#2240000000
0!
0+
0Q
0b
0#"
07"
#2260000000
1!
1(
1+
12
0?
b00100000 @
1Q
b100 _
1b
0m
b00100000 n
b10001000 v
1x
b10101 z
1#"
0$"
b00100000 %"
17"
1D"
#2280000000
0!
0"
0+
0,
0Q
0R
0b
0#"
07"
#2300000000
1!
1+
05
b00010000 6
b10000000 7
19
1:
1;
1<
1=
0H
b00100000 I
1Q
0T
b00010000 U
b10000000 V
1X
1Y
1Z
1[
1\
1]
0^
b1 _
1b
0c
b00010000 d
b10000000 e
1g
1h
1i
1j
1k
1#"
0."
b00100000 /"
17"
08"
b00100000 9"
#2320000000
0!
0+
0Q
0b
0#"
07"
#2340000000
1!
b00100000 %
0(
1+
b00100000 /
02
1?
1Q
b10 _
1b
1m
b01010 z
1#"
1$"
17"
b00100000 A"
0D"
#2360000000
0!
0+
0Q
0b
0#"
07"
#2380000000
1!
1+
15
1H
1Q
1T
b11 _
1b
1c
1#"
1."
17"
18"
#2400000000
0!
0+
0Q
0b
0#"
07"
#2420000000
1!
1(
1+
12
0?
b01000000 @
b10001000 A
b01000000 B
1Q
b100 _
1b
0m
b01000000 n
b10001000 o
b01000000 p
b10000000 v
b10000000 w
b10101 z
b10 {
b10 |
b10 }
b10 !"
1#"
0$"
b01000000 %"
b10001000 &"
b01000000 '"
17"
1D"
#2440000000
0!
1"
0+
1,
0Q
1R
0b
0#"
07"
#2460000000
1!
1+
05
0H
b01000000 I
b10001000 J
b01000000 K
1Q
0T
1X
1Y
1Z
1[
1\
1]
1^
b1 _
1b
0c
1#"
0."
b01000000 /"
b10001000 0"
b01000000 1"
17"
08"
b01000000 9"
b10001000 :"
b01000000 ;"
#2480000000
0!
0+
0Q
0b
0#"
07"
#2500000000
1!
b01000000 %
b10001000 &
b01000000 '
0(
1+
b01000000 /
b10001000 0
b01000000 1
02
1?
1Q
b10 _
1b
1m
b01010 z
1#"
1$"
17"
b01000000 A"
b10001000 B"
b01000000 C"
0D"
#2520000000
0!
0+
0Q
0b
0#"
07"
#2540000000
1!
1+
15
1H
1Q
1T
b11 _
1b
1c
1#"
1."
17"
18"
#2560000000
0!
0+
0Q
0b
0#"
07"
#2580000000
1!
1(
1+
12
0?
b10001000 @
b10000000 A
b10000000 B
1Q
b100 _
1b
0m
b10001000 n
b10000000 o
b10000000 p
b10101 z
b11 {
b11 |
b11 }
b11 !"
1#"
0$"
b10001000 %"
b10000000 &"
b10000000 '"
17"
1D"
#2600000000
0!
0"
0+
0,
0Q
0R
0b
0#"
07"
#2620000000
1!
1+
05
0H
b10001000 I
b10000000 J
b10000000 K
1Q
0T
1X
1Y
1Z
1[
1\
1]
0^
b1 _
1b
0c
1#"
0."
b10001000 /"
b10000000 0"
b10000000 1"
17"
08"
b10001000 9"
b10000000 :"
b10000000 ;"
#2640000000
0!
0+
0Q
0b
0#"
07"
#2660000000
1!
b10001000 %
b10000000 &
b10000000 '
0(
1+
b10001000 /
b10000000 0
b10000000 1
02
1?
1Q
b10 _
1b
1m
b01010 z
1#"
1$"
17"
b10001000 A"
b10000000 B"
b10000000 C"
0D"
#2680000000
0!
0+
0Q
0b
0#"
07"
#2700000000
1!
1+
15
1H
1Q
1T
b11 _
1b
1c
1#"
1."
17"
18"
#2720000000
0!
0+
0Q
0b
0#"
07"
#2740000000
1!
1(
1+
12
0?
b00010000 @
1C
1D
1E
1F
1Q
b100 _
1b
0m
b00010000 n
1q
1r
1s
1t
b10101 z
1#"
0$"
b00010000 %"
1("
1)"
1*"
1+"
17"
1D"
#2760000000
0!
1"
0+
1,
0Q
1R
0b
0#"
07"
#2780000000
1!
1+
05
0H
b00010000 I
1L
1M
1N
1Q
0T
1X
1Y
1Z
1[
1\
1]
1^
b1 _
1b
0c
1#"
0."
b00010000 /"
12"
13"
14"
17"
08"
b00010000 9"
1<"
1="
1>"
#2800000000
0!
0+
0Q
0b
0#"
07"
#2820000000
1!
b00010000 %
0(
0)
1+
b00010000 /
02
03
1?
1Q
b10 _
1b
1m
b01010 z
1#"
1$"
17"
b00010000 A"
0D"
0E"
#2840000000
0!
0+
0Q
0b
0#"
07"
#2860000000
1!
1+
15
1H
1Q
1T
b11 _
1b
1c
1#"
1."
17"
18"
#2880000000
0!
0+
0Q
0b
0#"
07"
#2900000000
1!
1(
1+
12
0?
1Q
b100 _
1b
0m
b10101 z
1#"
0$"
17"
1D"
#2920000000
0!
0"
0+
0,
0Q
0R
0b
0#"
07"
#2940000000
1!
1+
05
0H
1Q
0T
1X
1Y
1Z
1[
1\
1]
0^
b1 _
1b
0c
1#"
0."
17"
08"
#2960000000
0!
0+
0Q
0b
0#"
07"
#2980000000
1!
0(
1+
02
1?
1Q
b10 _
1b
1m
b01010 z
1#"
1$"
17"
0D"
#3000000000
0!
0+
0Q
0b
0#"
07"
#3020000000
1!
1+
15
1H
1Q
1T
b11 _
1b
1c
1#"
1."
17"
18"
#3040000000
0!
0+
0Q
0b
0#"
07"
#3060000000
1!
1(
1+
12
0?
1Q
b100 _
1b
0m
b10101 z
1#"
0$"
17"
1D"
#3080000000
0!
1"
0+
1,
0Q
1R
0b
0#"
07"
#3100000000
1!
1+
05
0H
1Q
0T
1X
1Y
1Z
1[
1\
1]
1^
b1 _
1b
0c
1#"
0."
17"
08"
#3120000000
0!
0+
0Q
0b
0#"
07"
#3140000000
1!
0(
1+
02
1?
1Q
b10 _
1b
1m
b01010 z
1#"
1$"
17"
0D"
#3160000000
0!
0+
0Q
0b
0#"
07"
#3180000000
1!
1+
15
1H
1Q
1T
b11 _
1b
1c
1#"
1."
17"
18"
#3200000000
0!
0+
0Q
0b
0#"
07"
#3220000000
1!
1(
1+
12
0?
1Q
b100 _
1b
0m
b10101 z
1#"
0$"
17"
1D"
#3240000000
0!
0"
0+
0,
0Q
0R
0b
0#"
07"
#3260000000
1!
1+
05
0H
1Q
0T
1X
1Y
1Z
1[
1\
1]
0^
b1 _
1b
0c
1#"
0."
17"
08"
#3280000000
0!
0+
0Q
0b
0#"
07"
#3300000000
1!
0(
1+
02
1?
1Q
b10 _
1b
1m
b01010 z
1#"
1$"
17"
0D"
#3320000000
0!
0+
0Q
0b
0#"
07"
#3340000000
1!
1+
15
1H
1Q
1T
b11 _
1b
1c
1#"
1."
17"
18"
#3360000000
0!
0+
0Q
0b
0#"
07"
#3380000000
1!
1(
1+
12
0?
1Q
b100 _
1b
0m
b10101 z
1#"
0$"
17"
1D"
