HDL/simulation/gc_dv_top_level_tb02.vcd
$date
  Tue Mar  9 12:47:48 2021
$end
$version
  GHDL v0
$end
$timescale
  1 fs
$end
$scope module standard $end
$upscope $end
$scope module std_logic_1164 $end
$upscope $end
$scope module numeric_std $end
$upscope $end
$scope module gc_dv_top_level_tb $end
$var reg 1 ! vclk_tb $end
$var reg 1 " vphase_tb $end
$var reg 8 # vdata_tb[7:0] $end
$var reg 1 $ rgb_out_en_tb $end
$var reg 8 % g_y_dac_tb[7:0] $end
$var reg 8 & b_cb_dac_tb[7:0] $end
$var reg 8 ' r_cr_dac_tb[7:0] $end
$var reg 1 ( clk_dac_tb $end
$var reg 1 ) nc_sync_dac_tb $end
$var reg 1 * nblanking_tb $end
$scope module uut $end
$var reg 1 + vclk $end
$var reg 1 , vphase $end
$var reg 8 - vdata[7:0] $end
$var reg 1 . rgb_out_en $end
$var reg 8 / g_y_dac[7:0] $end
$var reg 8 0 b_cb_dac[7:0] $end
$var reg 8 1 r_cr_dac[7:0] $end
$var reg 1 2 clk_dac $end
$var reg 1 3 nc_sync_dac $end
$var reg 1 4 nblanking_dac $end
$var reg 1 5 pclk_decode $end
$var reg 8 6 y_decode[7:0] $end
$var reg 8 7 cbcr_decode[7:0] $end
$var reg 1 8 is_cr_decode $end
$var reg 1 9 is_odd_decode $end
$var reg 1 : h_sync_decode $end
$var reg 1 ; v_sync_decode $end
$var reg 1 < c_sync_decode $end
$var reg 1 = blanking_decode $end
$var reg 1 > dvalid_decode $end
$var reg 1 ? pclk_444 $end
$var reg 8 @ y_444[7:0] $end
$var reg 8 A cb_444[7:0] $end
$var reg 8 B cr_444[7:0] $end
$var reg 1 C h_sync_444 $end
$var reg 1 D v_sync_444 $end
$var reg 1 E c_sync_444 $end
$var reg 1 F blanking_444 $end
$var reg 1 G dvalid_444 $end
$var reg 1 H pclk_cconv $end
$var reg 8 I g_y_cconv[7:0] $end
$var reg 8 J b_cb_cconv[7:0] $end
$var reg 8 K r_cr_cconv[7:0] $end
$var reg 1 L h_sync_cconv $end
$var reg 1 M v_sync_cconv $end
$var reg 1 N c_sync_cconv $end
$var reg 1 O blanking_cconv $end
$var reg 1 P dvalid_cconv $end
$scope module frame_decode $end
$var reg 1 Q vclk $end
$var reg 1 R vphase $end
$var reg 8 S vdata[7:0] $end
$var reg 1 T pclk $end
$var reg 8 U y[7:0] $end
$var reg 8 V cbcr[7:0] $end
$var reg 1 W is_cr $end
$var reg 1 X is_odd $end
$var reg 1 Y h_sync $end
$var reg 1 Z v_sync $end
$var reg 1 [ c_sync $end
$var reg 1 \ blanking $end
$var reg 1 ] dvalid $end
$var reg 8 ^ new_vdata[7:0] $end
$var reg 1 _ new_vphase $end
$comment vdata_buffer is not handled $end
$var reg 1 ` last_vphase $end
$var integer 32 a vsample_count $end
$var reg 1 b last_vmode $end
$var reg 1 c last_dvalid $end
$var reg 1 d valid_sample $end
$var reg 8 e y_sample[7:0] $end
$var reg 8 f cbcr_sample[7:0] $end
$upscope $end
$scope module chroma_upsampling $end
$var reg 1 g vclk $end
$var reg 1 h pclk $end
$var reg 8 i y[7:0] $end
$var reg 8 j cbcr[7:0] $end
$var reg 1 k is_cr $end
$var reg 1 l is_odd $end
$var reg 1 m h_sync $end
$var reg 1 n v_sync $end
$var reg 1 o c_sync $end
$var reg 1 p blanking $end
$var reg 1 q dvalid $end
$var reg 1 r pclk_out $end
$var reg 8 s y_out[7:0] $end
$var reg 8 t cb_out[7:0] $end
$var reg 8 u cr_out[7:0] $end
$var reg 1 v h_sync_out $end
$var reg 1 w v_sync_out $end
$var reg 1 x c_sync_out $end
$var reg 1 y blanking_out $end
$var reg 1 z dvalid_out $end
$var reg 8 { cb_sample[7:0] $end
$var reg 8 | cr_sample[7:0] $end
$var reg 1 } cb_loaded $end
$var reg 1 !" cr_loaded $end
$comment y_pipe is not handled $end
$var reg 5 "" pclk_pipe[0:4] $end
$var reg 2 #" h_sync_pipe[0:1] $end
$var reg 2 $" v_sync_pipe[0:1] $end
$var reg 2 %" c_sync_pipe[0:1] $end
$var reg 2 &" blanking_pipe[0:1] $end
$var reg 2 '" dvalid_pipe[0:1] $end
$upscope $end
$scope module color_space_converter $end
$var reg 1 (" vclk $end
$var reg 1 )" pclk $end
$var reg 8 *" y[7:0] $end
$var reg 8 +" cb[7:0] $end
$var reg 8 ," cr[7:0] $end
$var reg 1 -" h_sync $end
$var reg 1 ." v_sync $end
$var reg 1 /" c_sync $end
$var reg 1 0" blanking $end
$var reg 1 1" dvalid $end
$var reg 1 2" rgb_out_en $end
$var reg 1 3" pclk_out $end
$var reg 8 4" g_y_out[7:0] $end
$var reg 8 5" b_cb_out[7:0] $end
$var reg 8 6" r_cr_out[7:0] $end
$var reg 1 7" h_sync_out $end
$var reg 1 8" v_sync_out $end
$var reg 1 9" c_sync_out $end
$var reg 1 :" blanking_out $end
$var reg 1 ;" dvalid_out $end
$upscope $end
$scope module output_video_samples_to_dac $end
$var reg 1 <" vclk $end
$var reg 1 =" pclk $end
$var reg 8 >" g_y[7:0] $end
$var reg 8 ?" b_cb[7:0] $end
$var reg 8 @" r_cr[7:0] $end
$var reg 1 A" h_sync $end
$var reg 1 B" v_sync $end
$var reg 1 C" c_sync $end
$var reg 1 D" blanking $end
$var reg 1 E" dvalid $end
$var reg 8 F" g_y_dac[7:0] $end
$var reg 8 G" b_cb_dac[7:0] $end
$var reg 8 H" r_cr_dac[7:0] $end
$var reg 1 I" clk_dac $end
$var reg 1 J" nc_sync_dac $end
$var reg 1 K" nblanking_dac $end
$upscope $end
$upscope $end
$upscope $end
$enddefinitions $end
#0
0!
0"
b00000000 #
0$
bUUUUUUUU %
bUUUUUUUU &
bUUUUUUUU '
U(
U)
U*
0+
0,
b00000000 -
0.
bUUUUUUUU /
bUUUUUUUU 0
bUUUUUUUU 1
U2
U3
U4
U5
bUUUUUUUU 6
bUUUUUUUU 7
U8
U9
U:
U;
U<
U=
U>
U?
bUUUUUUUU @
bUUUUUUUU A
bUUUUUUUU B
UC
UD
UE
UF
UG
UH
bUUUUUUUU I
bUUUUUUUU J
bUUUUUUUU K
UL
UM
UN
UO
UP
0Q
0R
b00000000 S
UT
bUUUUUUUU U
bUUUUUUUU V
UW
UX
UY
UZ
U[
U\
U]
bUUUUUUUU ^
0_
0`
b0 a
0b
0c
0d
bUUUUUUUU e
bUUUUUUUU f
0g
Uh
bUUUUUUUU i
bUUUUUUUU j
Uk
Ul
Um
Un
Uo
Up
Uq
Ur
bUUUUUUUU s
bUUUUUUUU t
bUUUUUUUU u
Uv
Uw
Ux
Uy
Uz
bUUUUUUUU {
bUUUUUUUU |
0}
0!"
bUUUUU ""
bUU #"
bUU $"
bUU %"
bUU &"
bUU '"
0("
U)"
bUUUUUUUU *"
bUUUUUUUU +"
bUUUUUUUU ,"
U-"
U."
U/"
U0"
U1"
02"
U3"
bUUUUUUUU 4"
bUUUUUUUU 5"
bUUUUUUUU 6"
U7"
U8"
U9"
U:"
U;"
0<"
U="
bUUUUUUUU >"
bUUUUUUUU ?"
bUUUUUUUU @"
UA"
UB"
UC"
UD"
UE"
bUUUUUUUU F"
bUUUUUUUU G"
bUUUUUUUU H"
UI"
UJ"
UK"
#20000000
1!
1+
05
0O
1Q
0T
b00000000 ^
b1 a
1g
0h
1("
0:"
1<"
0D"
#40000000
0!
0+
0Q
0g
0("
0<"
#60000000
1!
1*
1+
14
1Q
b10 a
1g
b0UUUU ""
1("
1<"
1K"
#80000000
0!
0+
0Q
0g
0("
0<"
#100000000
1!
1+
1Q
0T
b11 a
1g
1("
1<"
#120000000
0!
0+
0Q
0g
0("
0<"
#140000000
1!
1+
1Q
0T
b100 a
1g
1("
1<"
#160000000
0!
1"
0+
1,
0Q
1R
0g
0("
0<"
#180000000
1!
1+
b00010000 6
b10000000 7
08
09
0:
0;
0<
0=
0>
1Q
b00010000 U
b10000000 V
0W
0X
0Y
0Z
0[
0\
0]
1_
1g
b00010000 i
b10000000 j
0k
0l
0m
0n
0o
0p
0q
1("
1<"
#200000000
0!
0+
0Q
0g
0("
0<"
#220000000
1!
1+
1Q
1`
b1 a
1d
b00000000 e
b00000000 f
1g
1("
1<"
#240000000
0!
b11101111 #
0+
b11101111 -
0Q
b11101111 S
0g
0("
0<"
#260000000
1!
1+
19
1:
1;
1<
1=
1>
1Q
1X
1Y
1Z
1[
1\
1]
b11101111 ^
b10 a
1c
0d
1g
1l
1m
1n
1o
1p
1q
1("
1<"
#280000000
0!
0+
0Q
0g
0("
0<"
#300000000
1!
1+
15
1Q
1T
b11 a
1g
1h
1("
1<"
#320000000
0!
0"
b00000000 #
0+
0,
b00000000 -
0Q
0R
b00000000 S
0g
0("
0<"
#340000000
1!
1+
1Q
b00000000 ^
0_
b100 a
1g
b10000000 {
b10000000 |
1}
1!"
b10UUU ""
b1U #"
b1U $"
b1U %"
b1U &"
b1U '"
1("
1<"
#360000000
0!
0+
0Q
0g
0("
0<"
#380000000
1!
1+
05
09
0:
0;
0<
0=
0>
1Q
0T
0X
0Y
0Z
0[
0\
0]
0`
b1 a
0c
1d
b11101111 f
1g
0h
0l
0m
0n
0o
0p
0q
1("
1<"
#400000000
0!
b11011111 #
0+
b11011111 -
0Q
b11011111 S
0g
0("
0<"
#420000000
1!
1+
1:
1=
1>
1Q
1Y
1\
1]
b11011111 ^
b10 a
1c
0d
1g
1m
1p
1q
b010UU ""
1("
1<"
#440000000
0!
0+
0Q
0g
0("
0<"
#460000000
1!
1+
15
1Q
1T
b11 a
1g
1h
1("
1<"
#480000000
0!
1"
b00000000 #
0+
1,
b00000000 -
0Q
1R
b00000000 S
0g
0("
0<"
#500000000
1!
1+
b10000000 A
b10000000 B
1Q
b00000000 ^
1_
b100 a
1g
b10000000 t
b10000000 u
b1010U ""
b11 #"
b01 $"
b01 %"
b11 &"
b11 '"
1("
b10000000 +"
b10000000 ,"
1<"
#520000000
0!
0+
0Q
0g
0("
0<"
#540000000
1!
1+
05
0:
0=
0>
b10000000 J
b10000000 K
1Q
0T
0Y
0\
0]
1`
b1 a
0c
1d
b11011111 f
1g
0h
0m
0p
0q
1("
b10000000 5"
b10000000 6"
1<"
b10000000 ?"
b10000000 @"
#560000000
0!
b01111111 #
0+
b01111111 -
0Q
b01111111 S
0g
0("
0<"
#580000000
1!
b10000000 &
b10000000 '
1+
b10000000 0
b10000000 1
1;
1=
1>
1Q
1Z
1\
1]
b01111111 ^
b10 a
1c
0d
1g
1n
1p
1q
b01010 ""
1("
1<"
b10000000 G"
b10000000 H"
#600000000
0!
0+
0Q
0g
0("
0<"
#620000000
1!
1+
15
1Q
1T
b11 a
1g
1h
1("
1<"
#640000000
0!
0"
b00000000 #
0+
0,
b00000000 -
0Q
0R
b00000000 S
0g
0("
0<"
#660000000
1!
1+
0?
b00010000 @
1C
1D
1E
1F
1G
1Q
b00000000 ^
0_
b100 a
1g
0r
b00010000 s
1v
1w
1x
1y
1z
b10101 ""
b01 #"
b10 $"
b00 %"
1("
0)"
b00010000 *"
1-"
1."
1/"
10"
11"
1<"
#680000000
0!
0+
0Q
0g
0("
0<"
#700000000
1!
1+
05
0;
0=
0>
0H
b00010000 I
1L
1M
1N
1P
1Q
0T
0Z
0\
0]
0`
b1 a
0c
1d
b01111111 f
1g
0h
0n
0p
0q
1("
03"
b00010000 4"
17"
18"
19"
1;"
1<"
0="
b00010000 >"
1A"
1B"
1C"
1E"
#720000000
0!
b11111111 #
0+
b11111111 -
0Q
b11111111 S
0g
0("
0<"
#740000000
1!
b00010000 %
0(
0)
1+
b00010000 /
02
03
1<
1=
1>
1?
1Q
1[
1\
1]
b11111111 ^
b10 a
1c
0d
1g
1o
1p
1q
1r
b01010 ""
1("
1)"
1<"
b00010000 F"
0I"
0J"
#760000000
0!
0+
0Q
0g
0("
0<"
#780000000
1!
1+
15
1H
1Q
1T
b11 a
1g
1h
1("
13"
1<"
1="
#800000000
0!
1"
b00000001 #
0+
1,
b00000001 -
0Q
1R
b00000001 S
0g
0("
0<"
#820000000
1!
1(
1+
12
0?
0D
0E
1Q
b00000001 ^
1_
b100 a
1g
0r
0w
0x
b10101 ""
b00 #"
b01 $"
b10 %"
1("
0)"
0."
0/"
1<"
1I"
#840000000
0!
0+
0Q
0g
0("
0<"
#860000000
1!
1+
05
0<
0=
0>
0H
0M
0N
1Q
0T
0[
0\
0]
1`
b1 a
0c
1d
b11111111 f
1g
0h
0o
0p
0q
1("
03"
08"
09"
1<"
0="
0B"
0C"
#880000000
0!
0+
0Q
0g
0("
0<"
#900000000
1!
0(
1)
1+
02
13
1=
1>
1?
1Q
1\
1]
b10 a
1c
0d
1g
1p
1q
1r
b01010 ""
1("
1)"
1<"
0I"
1J"
#920000000
0!
0+
0Q
0g
0("
0<"
#940000000
1!
1+
15
1H
1Q
1T
b11 a
1g
1h
1("
13"
1<"
1="
#960000000
0!
0"
b00000010 #
0+
0,
b00000010 -
0Q
0R
b00000010 S
0g
0("
0<"
#980000000
1!
1(
1+
12
0?
0C
1D
1Q
b00000010 ^
0_
b100 a
1g
0r
0v
1w
b10101 ""
b00 $"
b01 %"
1("
0)"
0-"
1."
1<"
1I"
#1000000000
0!
0+
0Q
0g
0("
0<"
#1020000000
1!
1+
05
0=
0>
0H
0L
1M
1Q
0T
0\
0]
0`
b1 a
0c
1d
b00000001 e
b00000001 f
1g
0h
0p
0q
1("
03"
07"
18"
1<"
0="
0A"
1B"
#1040000000
0!
0+
0Q
0g
0("
0<"
#1060000000
1!
0(
1+
02
b00000001 6
b00000001 7
1>
1?
1Q
b00000001 U
b00000001 V
1]
b10 a
1c
0d
1g
b00000001 i
b00000001 j
1q
1r
b01010 ""
1("
1)"
1<"
0I"
#1080000000
0!
0+
0Q
0g
0("
0<"
#1100000000
1!
1+
15
1H
1Q
1T
b11 a
1g
1h
1("
13"
1<"
1="
#1120000000
0!
1"
b00000100 #
0+
1,
b00000100 -
0Q
1R
b00000100 S
0g
0("
0<"
#1140000000
1!
1(
1+
12
0?
0D
1E
1Q
b00000100 ^
1_
b100 a
1g
0r
0w
1x
b00000001 {
0!"
b10101 ""
b00 %"
b01 &"
1("
0)"
0."
1/"
1<"
1I"
#1160000000
0!
0+
0Q
0g
0("
0<"
#1180000000
1!
1+
05
b00010000 6
b10000000 7
0>
0H
0M
1N
1Q
0T
b00010000 U
b10000000 V
0]
1`
b1 a
0c
1d
b00000010 e
b00000010 f
1g
0h
b00010000 i
b10000000 j
0q
1("
03"
08"
19"
1<"
0="
0B"
1C"
#1200000000
0!
0+
0Q
0g
0("
0<"
#1220000000
1!
0(
0)
1+
02
03
b00000010 6
b00000010 7
18
1>
1?
1Q
b00000010 U
b00000010 V
1W
1]
b10 a
1c
0d
1g
b00000010 i
b00000010 j
1k
1q
1r
b01010 ""
1("
1)"
1<"
0I"
0J"
#1240000000
0!
0+
0Q
0g
0("
0<"
#1260000000
1!
1+
15
1H
1Q
1T
b11 a
1g
1h
1("
13"
1<"
1="
#1280000000
0!
0+
0Q
0g
0("
0<"
#1300000000
1!
1(
1+
12
0?
0E
1Q
b100 a
1g
0r
0x
b00000010 |
1!"
b10101 ""
b00 &"
1("
0)"
0/"
1<"
1I"
#1320000000
0!
0"
b00001000 #
0+
0,
b00001000 -
0Q
0R
b00001000 S
0g
0("
0<"
#1340000000
1!
1+
05
b00010000 6
b10000000 7
08
0>
0H
0N
1Q
0T
b00010000 U
b10000000 V
0W
0]
b00001000 ^
0_
0c
1g
0h
b00010000 i
b10000000 j
0k
0q
1("
03"
09"
1<"
0="
0C"
#1360000000
0!
0+
0Q
0g
0("
0<"
#1380000000
1!
0(
1)
1+
02
13
1?
1Q
0`
b1 a
1d
b00000100 e
b00000100 f
1g
1r
b01010 ""
1("
1)"
1<"
0I"
1J"
#1400000000
0!
0+
0Q
0g
0("
0<"
#1420000000
1!
1+
b00000100 6
b00000100 7
1>
1H
1Q
b00000100 U
b00000100 V
1]
b10 a
1c
0d
1g
b00000100 i
b00000100 j
1q
1("
13"
1<"
1="
#1440000000
0!
0+
0Q
0g
0("
0<"
#1460000000
1!
1(
1+
12
15
1Q
1T
b11 a
1g
1h
1("
1<"
1I"
#1480000000
0!
1"
b00010000 #
0+
1,
b00010000 -
0Q
1R
b00010000 S
0g
0("
0<"
#1500000000
1!
1+
0?
b00000001 @
b00000001 A
b00000010 B
0F
1Q
b00010000 ^
1_
b100 a
1g
0r
b00000001 s
b00000001 t
b00000010 u
0y
b00000100 {
0!"
b10101 ""
1("
0)"
b00000001 *"
b00000001 +"
b00000010 ,"
00"
1<"
#1520000000
0!
0+
0Q
0g
0("
0<"
#1540000000
1!
1+
05
b00010000 6
b10000000 7
0>
0H
b00000001 I
b00000001 J
b00000010 K
1Q
0T
b00010000 U
b10000000 V
0]
1`
b1 a
0c
1d
b00001000 e
b00001000 f
1g
0h
b00010000 i
b10000000 j
0q
1("
03"
b00000001 4"
b00000001 5"
b00000010 6"
1<"
0="
b00000001 >"
b00000001 ?"
b00000010 @"
#1560000000
0!
0+
0Q
0g
0("
0<"
#1580000000
1!
b00000001 %
b00000001 &
b00000010 '
0(
1+
b00000001 /
b00000001 0
b00000010 1
02
b00001000 6
b00001000 7
18
1>
1?
1Q
b00001000 U
b00001000 V
1W
1]
b10 a
1c
0d
1g
b00001000 i
b00001000 j
1k
1q
1r
b01010 ""
1("
1)"
1<"
b00000001 F"
b00000001 G"
b00000010 H"
0I"
#1600000000
0!
0+
0Q
0g
0("
0<"
#1620000000
1!
1+
15
1H
1Q
1T
b11 a
1g
1h
1("
13"
1<"
1="
#1640000000
0!
0"
b00100000 #
0+
0,
b00100000 -
0Q
0R
b00100000 S
0g
0("
0<"
#1660000000
1!
1(
1+
12
0?
b00000010 @
1Q
b00100000 ^
0_
b100 a
1g
0r
b00000010 s
b00001000 |
1!"
b10101 ""
1("
0)"
b00000010 *"
1<"
1I"
#1680000000
0!
0+
0Q
0g
0("
0<"
#1700000000
1!
1+
05
b00010000 6
b10000000 7
08
0>
0H
b00000010 I
1Q
0T
b00010000 U
b10000000 V
0W
0]
0`
b1 a
0c
1d
b00010000 e
b00010000 f
1g
0h
b00010000 i
b10000000 j
0k
0q
1("
03"
b00000010 4"
1<"
0="
b00000010 >"
#1720000000
0!
0+
0Q
0g
0("
0<"
#1740000000
1!
b00000010 %
0(
1+
b00000010 /
02
b00010000 7
1>
1?
1Q
b00010000 V
1]
b10 a
1c
0d
1g
b00010000 j
1q
1r
b01010 ""
1("
1)"
1<"
b00000010 F"
0I"
#1760000000
0!
0+
0Q
0g
0("
0<"
#1780000000
1!
1+
15
1H
1Q
1T
b11 a
1g
1h
1("
13"
1<"
1="
#1800000000
0!
1"
b01000000 #
0+
1,
b01000000 -
0Q
1R
b01000000 S
0g
0("
0<"
#1820000000
1!
1(
1+
12
0?
b00000100 @
b00000100 A
b00001000 B
1Q
b01000000 ^
1_
b100 a
1g
0r
b00000100 s
b00000100 t
b00001000 u
b00010000 {
0!"
b10101 ""
1("
0)"
b00000100 *"
b00000100 +"
b00001000 ,"
1<"
1I"
#1840000000
0!
0+
0Q
0g
0("
0<"
#1860000000
1!
1+
05
b10000000 7
0>
0H
b00000100 I
b00000100 J
b00001000 K
1Q
0T
b10000000 V
0]
1`
b1 a
0c
1d
b00100000 e
b00100000 f
1g
0h
b10000000 j
0q
1("
03"
b00000100 4"
b00000100 5"
b00001000 6"
1<"
0="
b00000100 >"
b00000100 ?"
b00001000 @"
#1880000000
0!
0+
0Q
0g
0("
0<"
#1900000000
1!
b00000100 %
b00000100 &
b00001000 '
0(
1+
b00000100 /
b00000100 0
b00001000 1
02
b00100000 6
b00100000 7
18
1>
1?
1Q
b00100000 U
b00100000 V
1W
1]
b10 a
1c
0d
1g
b00100000 i
b00100000 j
1k
1q
1r
b01010 ""
1("
1)"
1<"
b00000100 F"
b00000100 G"
b00001000 H"
0I"
#1920000000
0!
0+
0Q
0g
0("
0<"
#1940000000
1!
1+
15
1H
1Q
1T
b11 a
1g
1h
1("
13"
1<"
1="
#1960000000
0!
0"
b10001000 #
0+
0,
b10001000 -
0Q
0R
b10001000 S
0g
0("
0<"
#1980000000
1!
1(
1+
12
0?
b00001000 @
1Q
b10001000 ^
0_
b100 a
1g
0r
b00001000 s
b00100000 |
1!"
b10101 ""
1("
0)"
b00001000 *"
1<"
1I"
#2000000000
0!
0+
0Q
0g
0("
0<"
#2020000000
1!
1+
05
b00010000 6
b10000000 7
08
0>
0H
b00001000 I
1Q
0T
b00010000 U
b10000000 V
0W
0]
0`
b1 a
0c
1d
b01000000 e
b01000000 f
1g
0h
b00010000 i
b10000000 j
0k
0q
1("
03"
b00001000 4"
1<"
0="
b00001000 >"
#2040000000
0!
0+
0Q
0g
0("
0<"
#2060000000
1!
b00001000 %
0(
1+
b00001000 /
02
b01000000 6
b01000000 7
1>
1?
1Q
b01000000 U
b01000000 V
1]
b10 a
1c
0d
1g
b01000000 i
b01000000 j
1q
1r
b01010 ""
1("
1)"
1<"
b00001000 F"
0I"
#2080000000
0!
0+
0Q
0g
0("
0<"
#2100000000
1!
1+
15
1H
1Q
1T
b11 a
1g
1h
1("
13"
1<"
1="
#2120000000
0!
1"
b00000000 #
0+
1,
b00000000 -
0Q
1R
b00000000 S
0g
0("
0<"
#2140000000
1!
1(
1+
12
0?
b00010000 @
b00010000 A
b00100000 B
1Q
b00000000 ^
1_
b100 a
1g
0r
b00010000 s
b00010000 t
b00100000 u
b01000000 {
0!"
b10101 ""
1("
0)"
b00010000 *"
b00010000 +"
b00100000 ,"
1<"
1I"
#2160000000
0!
0+
0Q
0g
0("
0<"
#2180000000
1!
1+
05
b00010000 6
b10000000 7
0>
0H
b00010000 I
b00010000 J
b00100000 K
1Q
0T
b00010000 U
b10000000 V
0]
1`
b1 a
0c
1d
b10001000 e
b10001000 f
1g
0h
b00010000 i
b10000000 j
0q
1("
03"
b00010000 4"
b00010000 5"
b00100000 6"
1<"
0="
b00010000 >"
b00010000 ?"
b00100000 @"
#2200000000
0!
0+
0Q
0g
0("
0<"
#2220000000
1!
b00010000 %
b00010000 &
b00100000 '
0(
1+
b00010000 /
b00010000 0
b00100000 1
02
b10001000 6
b10001000 7
18
1>
1?
1Q
b10001000 U
b10001000 V
1W
1]
b10 a
1c
0d
1g
b10001000 i
b10001000 j
1k
1q
1r
b01010 ""
1("
1)"
1<"
b00010000 F"
b00010000 G"
b00100000 H"
0I"
#2240000000
0!
0+
0Q
0g
0("
0<"
#2260000000
1!
1+
15
1H
1Q
1T
b11 a
1g
1h
1("
13"
1<"
1="
#2280000000
0!
0"
0+
0,
0Q
0R
0g
0("
0<"
#2300000000
1!
1(
1+
12
0?
b00100000 @
1Q
0_
b100 a
1g
0r
b00100000 s
b10001000 |
1!"
b10101 ""
1("
0)"
b00100000 *"
1<"
1I"
#2320000000
0!
0+
0Q
0g
0("
0<"
#2340000000
1!
1+
05
b00010000 6
b10000000 7
08
0>
0H
b00100000 I
1Q
0T
b00010000 U
b10000000 V
0W
0]
0`
b1 a
0c
1d
b00000000 e
b00000000 f
1g
0h
b00010000 i
b10000000 j
0k
0q
1("
03"
b00100000 4"
1<"
0="
b00100000 >"
#2360000000
0!
0+
0Q
0g
0("
0<"
#2380000000
1!
b00100000 %
0(
1+
b00100000 /
02
19
1:
1;
1<
1=
1>
1?
1Q
1X
1Y
1Z
1[
1\
1]
b10 a
1c
0d
1g
1l
1m
1n
1o
1p
1q
1r
b01010 ""
1("
1)"
1<"
b00100000 F"
0I"
#2400000000
0!
0+
0Q
0g
0("
0<"
#2420000000
1!
1+
15
1H
1Q
1T
b11 a
1g
1h
1("
13"
1<"
1="
#2440000000
0!
1"
0+
1,
0Q
1R
0g
0("
0<"
#2460000000
1!
1(
1+
12
0?
b01000000 @
b01000000 A
b10001000 B
1Q
1_
b100 a
1g
0r
b01000000 s
b01000000 t
b10001000 u
b10000000 {
b10000000 |
b10101 ""
b10 #"
b10 $"
b10 %"
b10 &"
1("
0)"
b01000000 *"
b01000000 +"
b10001000 ,"
1<"
1I"
#2480000000
0!
0+
0Q
0g
0("
0<"
#2500000000
1!
1+
05
09
0:
0;
0<
0=
0>
0H
b01000000 I
b01000000 J
b10001000 K
1Q
0T
0X
0Y
0Z
0[
0\
0]
1`
b1 a
0c
1d
1g
0h
0l
0m
0n
0o
0p
0q
1("
03"
b01000000 4"
b01000000 5"
b10001000 6"
1<"
0="
b01000000 >"
b01000000 ?"
b10001000 @"
#2520000000
0!
0+
0Q
0g
0("
0<"
#2540000000
1!
b01000000 %
b01000000 &
b10001000 '
0(
1+
b01000000 /
b01000000 0
b10001000 1
02
19
1:
1;
1<
1=
1>
1?
1Q
1X
1Y
1Z
1[
1\
1]
b10 a
1c
0d
1g
1l
1m
1n
1o
1p
1q
1r
b01010 ""
1("
1)"
1<"
b01000000 F"
b01000000 G"
b10001000 H"
0I"
#2560000000
0!
0+
0Q
0g
0("
0<"
#2580000000
1!
1+
15
1H
1Q
1T
b11 a
1g
1h
1("
13"
1<"
1="
#2600000000
0!
0"
0+
0,
0Q
0R
0g
0("
0<"
#2620000000
1!
1(
1+
12
0?
b10001000 @
b10000000 A
b10000000 B
1Q
0_
b100 a
1g
0r
b10001000 s
b10000000 t
b10000000 u
b10101 ""
b11 #"
b11 $"
b11 %"
b11 &"
1("
0)"
b10001000 *"
b10000000 +"
b10000000 ,"
1<"
1I"
#2640000000
0!
0+
0Q
0g
0("
0<"
#2660000000
1!
1+
05
09
0:
0;
0<
0=
0>
0H
b10001000 I
b10000000 J
b10000000 K
1Q
0T
0X
0Y
0Z
0[
0\
0]
0`
b1 a
0c
1d
1g
0h
0l
0m
0n
0o
0p
0q
1("
03"
b10001000 4"
b10000000 5"
b10000000 6"
1<"
0="
b10001000 >"
b10000000 ?"
b10000000 @"
#2680000000
0!
0+
0Q
0g
0("
0<"
#2700000000
1!
b10001000 %
b10000000 &
b10000000 '
0(
1+
b10001000 /
b10000000 0
b10000000 1
02
19
1:
1;
1<
1=
1>
1?
1Q
1X
1Y
1Z
1[
1\
1]
b10 a
1c
0d
1g
1l
1m
1n
1o
1p
1q
1r
b01010 ""
1("
1)"
1<"
b10001000 F"
b10000000 G"
b10000000 H"
0I"
#2720000000
0!
0+
0Q
0g
0("
0<"
#2740000000
1!
1+
15
1H
1Q
1T
b11 a
1g
1h
1("
13"
1<"
1="
#2760000000
0!
1"
0+
1,
0Q
1R
0g
0("
0<"
#2780000000
1!
1(
1+
12
0?
b00010000 @
1C
1D
1E
1F
1Q
1_
b100 a
1g
0r
b00010000 s
1v
1w
1x
1y
b10101 ""
1("
0)"
b00010000 *"
1-"
1."
1/"
10"
1<"
1I"
#2800000000
0!
0+
0Q
0g
0("
0<"
#2820000000
1!
1+
05
09
0:
0;
0<
0=
0>
0H
b00010000 I
1L
1M
1N
1Q
0T
0X
0Y
0Z
0[
0\
0]
1`
b1 a
0c
1d
1g
0h
0l
0m
0n
0o
0p
0q
1("
03"
b00010000 4"
17"
18"
19"
1<"
0="
b00010000 >"
1A"
1B"
1C"
#2840000000
0!
0+
0Q
0g
0("
0<"
#2860000000
1!
b00010000 %
0(
0)
1+
b00010000 /
02
03
19
1:
1;
1<
1=
1>
1?
1Q
1X
1Y
1Z
1[
1\
1]
b10 a
1c
0d
1g
1l
1m
1n
1o
1p
1q
1r
b01010 ""
1("
1)"
1<"
b00010000 F"
0I"
0J"
#2880000000
0!
0+
0Q
0g
0("
0<"
#2900000000
1!
1+
15
1H
1Q
1T
b11 a
1g
1h
1("
13"
1<"
1="
#2920000000
0!
0"
0+
0,
0Q
0R
0g
0("
0<"
#2940000000
1!
1(
1+
12
0?
1Q
0_
b100 a
1g
0r
b10101 ""
1("
0)"
1<"
1I"
#2960000000
0!
0+
0Q
0g
0("
0<"
#2980000000
1!
1+
05
09
0:
0;
0<
0=
0>
0H
1Q
0T
0X
0Y
0Z
0[
0\
0]
0`
b1 a
0c
1d
1g
0h
0l
0m
0n
0o
0p
0q
1("
03"
1<"
0="
#3000000000
0!
0+
0Q
0g
0("
0<"
#3020000000
1!
0(
1+
02
19
1:
1;
1<
1=
1>
1?
1Q
1X
1Y
1Z
1[
1\
1]
b10 a
1c
0d
1g
1l
1m
1n
1o
1p
1q
1r
b01010 ""
1("
1)"
1<"
0I"
#3040000000
0!
0+
0Q
0g
0("
0<"
#3060000000
1!
1+
15
1H
1Q
1T
b11 a
1g
1h
1("
13"
1<"
1="
#3080000000
0!
1"
0+
1,
0Q
1R
0g
0("
0<"
#3100000000
1!
1(
1+
12
0?
1Q
1_
b100 a
1g
0r
b10101 ""
1("
0)"
1<"
1I"
#3120000000
0!
0+
0Q
0g
0("
0<"
#3140000000
1!
1+
05
09
0:
0;
0<
0=
0>
0H
1Q
0T
0X
0Y
0Z
0[
0\
0]
1`
b1 a
0c
1d
1g
0h
0l
0m
0n
0o
0p
0q
1("
03"
1<"
0="
#3160000000
0!
0+
0Q
0g
0("
0<"
#3180000000
1!
0(
1+
02
19
1:
1;
1<
1=
1>
1?
1Q
1X
1Y
1Z
1[
1\
1]
b10 a
1c
0d
1g
1l
1m
1n
1o
1p
1q
1r
b01010 ""
1("
1)"
1<"
0I"
#3200000000
0!
0+
0Q
0g
0("
0<"
#3220000000
1!
1+
15
1H
1Q
1T
b11 a
1g
1h
1("
13"
1<"
1="
#3240000000
0!
0"
0+
0,
0Q
0R
0g
0("
0<"
#3260000000
1!
1(
1+
12
0?
1Q
0_
b100 a
1g
0r
b10101 ""
1("
0)"
1<"
1I"
#3280000000
0!
0+
0Q
0g
0("
0<"
