HDL/GC_Video_Adapter/source/gc_dv_422_to_444_tb01.vcd
$date
  Sun Feb 28 10:42:47 2021
$end
$version
  GHDL v0
$end
$timescale
  1 fs
$end
$scope module standard $end
$upscope $end
$scope module std_logic_1164 $end
$upscope $end
$scope module numeric_std $end
$upscope $end
$scope module gc_dv_422_to_444_tb $end
$var reg 1 ! vclk_tb $end
$var reg 1 " pclk_tb $end
$var reg 8 # y_tb[7:0] $end
$var reg 8 $ cbcr_tb[7:0] $end
$var reg 1 % is_cr_tb $end
$var reg 1 & is_odd_tb $end
$var reg 1 ' h_sync_tb $end
$var reg 1 ( v_sync_tb $end
$var reg 1 ) c_sync_tb $end
$var reg 1 * blanking_tb $end
$var reg 1 + dvalid_tb $end
$var reg 1 , pclk_out_tb $end
$var reg 8 - y_out_tb[7:0] $end
$var reg 8 . cb_out_tb[7:0] $end
$var reg 8 / cr_out_tb[7:0] $end
$var reg 1 0 h_sync_out_tb $end
$var reg 1 1 v_sync_out_tb $end
$var reg 1 2 c_sync_out_tb $end
$var reg 1 3 blanking_out_tb $end
$var reg 1 4 dvalid_out_tb $end
$scope module uut $end
$var reg 1 5 vclk $end
$var reg 1 6 pclk $end
$var reg 8 7 y[7:0] $end
$var reg 8 8 cbcr[7:0] $end
$var reg 1 9 is_cr $end
$var reg 1 : is_odd $end
$var reg 1 ; h_sync $end
$var reg 1 < v_sync $end
$var reg 1 = c_sync $end
$var reg 1 > blanking $end
$var reg 1 ? dvalid $end
$var reg 1 @ pclk_out $end
$var reg 8 A y_out[7:0] $end
$var reg 8 B cb_out[7:0] $end
$var reg 8 C cr_out[7:0] $end
$var reg 1 D h_sync_out $end
$var reg 1 E v_sync_out $end
$var reg 1 F c_sync_out $end
$var reg 1 G blanking_out $end
$var reg 1 H dvalid_out $end
$var reg 8 I cb_sample[7:0] $end
$var reg 8 J cr_sample[7:0] $end
$var reg 1 K cb_loaded $end
$var reg 1 L cr_loaded $end
$comment y_pipe is not handled $end
$var reg 4 M pclk_pipe[0:3] $end
$var reg 2 N h_sync_pipe[0:1] $end
$var reg 2 O v_sync_pipe[0:1] $end
$var reg 2 P c_sync_pipe[0:1] $end
$var reg 2 Q blanking_pipe[0:1] $end
$var reg 2 R dvalid_pipe[0:1] $end
$var reg 1 S last_pclk $end
$upscope $end
$upscope $end
$enddefinitions $end
#0
0!
0"
b00000000 #
b00000000 $
1%
0&
1'
0(
0)
0*
1+
0,
b00010000 -
b10000000 .
b10000000 /
00
01
02
03
04
05
06
b00000000 7
b00000000 8
19
0:
1;
0<
0=
0>
1?
0@
b00010000 A
b10000000 B
b10000000 C
0D
0E
0F
0G
0H
b10000000 I
b10000000 J
0K
0L
b0000 M
b00 N
b00 O
b00 P
b00 Q
b00 R
0S
#20000000
1!
15
#40000000
0!
1"
05
16
#60000000
1!
15
b00000000 J
1L
b1000 M
b10 N
b10 R
1S
#80000000
0!
0"
b00000001 #
b00000001 $
0%
0'
1(
05
06
b00000001 7
b00000001 8
09
0;
1<
#100000000
1!
15
b0100 M
0S
#120000000
0!
1"
05
16
#140000000
1!
15
b00000001 I
1K
b1010 M
b01 N
b10 O
b11 R
1S
#160000000
0!
0"
b00000010 #
b00000010 $
1%
0(
1)
05
06
b00000010 7
b00000010 8
19
0<
1=
#180000000
1!
15
b0101 M
0S
#200000000
0!
1"
05
16
#220000000
1!
1,
b00000000 -
b00000001 .
b00000000 /
10
14
15
1@
b00000000 A
b00000001 B
b00000000 C
1D
1H
b00000010 J
0K
b1010 M
b00 N
b01 O
b10 P
1S
#240000000
0!
0"
b00000100 #
b00000100 $
0%
0)
1*
05
06
b00000100 7
b00000100 8
09
0=
1>
#260000000
1!
0,
15
0@
b0101 M
0S
#280000000
0!
1"
05
16
#300000000
1!
1,
b00000001 -
00
11
15
1@
b00000001 A
0D
1E
b00000100 I
1K
b1010 M
b00 O
b01 P
b10 Q
1S
#320000000
0!
0"
b00001000 #
b00001000 $
1%
0*
0+
05
06
b00001000 7
b00001000 8
19
0>
0?
#340000000
1!
0,
15
0@
b0101 M
0S
#360000000
0!
1"
05
16
#380000000
1!
1,
b00000010 -
b00000100 .
b00000010 /
01
12
15
1@
b00000010 A
b00000100 B
b00000010 C
0E
1F
b00001000 J
0K
b1010 M
b00 P
b01 Q
b01 R
1S
#400000000
0!
0"
b00010000 #
b00010000 $
0%
1*
1+
05
06
b00010000 7
b00010000 8
09
1>
1?
#420000000
1!
0,
15
0@
b0101 M
0S
#440000000
0!
1"
05
16
#460000000
1!
1,
b00000100 -
02
13
15
1@
b00000100 A
0F
1G
b00010000 I
1K
b1010 M
b10 Q
b10 R
1S
#480000000
0!
0"
b00100000 #
b00100000 $
1%
1)
0*
05
06
b00100000 7
b00100000 8
19
1=
0>
#500000000
1!
0,
15
0@
b0101 M
0S
#520000000
0!
1"
05
16
#540000000
1!
1,
b00001000 -
b00010000 .
b00001000 /
03
04
15
1@
b00001000 A
b00010000 B
b00001000 C
0G
0H
b00100000 J
0K
b1010 M
b10 P
b01 Q
b11 R
1S
#560000000
0!
0"
b01000000 #
b01000000 $
0%
1(
0)
05
06
b01000000 7
b01000000 8
09
1<
0=
#580000000
1!
0,
15
0@
b0101 M
0S
#600000000
0!
1"
05
16
#620000000
1!
1,
b00010000 -
13
14
15
1@
b00010000 A
1G
1H
b01000000 I
1K
b1010 M
b10 O
b01 P
b00 Q
1S
#640000000
0!
0"
b10000000 #
b10000000 $
1%
1'
0(
05
06
b10000000 7
b10000000 8
19
1;
0<
#660000000
1!
0,
15
0@
b0101 M
0S
#680000000
0!
1"
05
16
#700000000
1!
1,
b00100000 -
b01000000 .
b00100000 /
12
03
15
1@
b00100000 A
b01000000 B
b00100000 C
1F
0G
b10000000 J
0K
b1010 M
b10 N
b01 O
b00 P
1S
#720000000
0!
0"
b10000001 #
b10000001 $
0%
0'
05
06
b10000001 7
b10000001 8
09
0;
#740000000
1!
0,
15
0@
b0101 M
0S
#760000000
0!
1"
05
16
#780000000
1!
1,
b01000000 -
11
02
15
1@
b01000000 A
1E
0F
b10000001 I
1K
b1010 M
b01 N
b00 O
1S
#800000000
0!
0"
b00000000 #
b00000000 $
1'
05
06
b00000000 7
b00000000 8
1;
#820000000
1!
0,
15
0@
b0101 M
0S
#840000000
0!
1"
05
16
#860000000
1!
1,
b10000000 -
b10000001 .
b10000000 /
10
01
15
1@
b10000000 A
b10000001 B
b10000000 C
1D
0E
b00000000 I
0L
b1010 M
b10 N
1S
#880000000
0!
0"
b00000001 #
b00000001 $
1%
0'
1(
05
06
b00000001 7
b00000001 8
19
0;
1<
#900000000
1!
0,
15
0@
b0101 M
0S
#920000000
0!
1"
05
16
#940000000
1!
1,
b10000001 -
00
15
1@
b10000001 A
0D
b00000001 J
1L
b1010 M
b01 N
b10 O
1S
#960000000
0!
0"
b00000010 #
b00000010 $
0%
0(
1)
05
06
b00000010 7
b00000010 8
09
0<
1=
#980000000
1!
0,
15
0@
b0101 M
0S
#1000000000
0!
1"
05
16
#1020000000
1!
1,
b00000000 -
b00000000 .
b00000001 /
10
15
1@
b00000000 A
b00000000 B
b00000001 C
1D
b00000010 I
0L
b1010 M
b00 N
b01 O
b10 P
1S
#1040000000
0!
0"
b00010000 #
b00010000 $
1'
0)
05
06
b00010000 7
b00010000 8
1;
0=
#1060000000
1!
0,
15
0@
b0101 M
0S
#1080000000
0!
1"
05
16
#1100000000
1!
1,
b00000001 -
00
11
15
1@
b00000001 A
0D
1E
b00010000 I
b1010 M
b10 N
b00 O
b01 P
1S
#1120000000
0!
0"
b00100000 #
b00100000 $
1%
0'
1(
05
06
b00100000 7
b00100000 8
19
0;
1<
#1140000000
1!
0,
15
0@
b0101 M
0S
#1160000000
0!
1"
05
16
#1180000000
1!
1,
b00000010 -
01
12
15
1@
b00000010 A
0E
1F
b00100000 J
1L
b1010 M
b01 N
b10 O
b00 P
1S
#1200000000
0!
0"
b01000000 #
b01000000 $
0%
0(
1)
05
06
b01000000 7
b01000000 8
09
0<
1=
#1220000000
1!
0,
15
0@
b0101 M
0S
#1240000000
0!
1"
05
16
#1260000000
1!
1,
b00010000 -
b00010000 .
b00100000 /
10
02
15
1@
b00010000 A
b00010000 B
b00100000 C
1D
0F
b01000000 I
0L
b1010 M
b00 N
b01 O
b10 P
1S
#1280000000
0!
0"
b10000000 #
b10000000 $
1%
0)
1*
05
06
b10000000 7
b10000000 8
19
0=
1>
#1300000000
1!
0,
15
0@
b0101 M
0S
#1320000000
0!
1"
05
16
#1340000000
1!
1,
b00100000 -
00
11
15
1@
b00100000 A
0D
1E
b10000000 J
1L
b1010 M
b00 O
b01 P
b10 Q
1S
#1360000000
0!
0"
b00000000 #
b00000000 $
0%
1)
0*
05
06
b00000000 7
b00000000 8
09
1=
0>
#1380000000
1!
0,
15
0@
b0101 M
0S
#1400000000
0!
1"
05
16
#1420000000
1!
1,
b01000000 -
b01000000 .
b10000000 /
01
12
15
1@
b01000000 A
b01000000 B
b10000000 C
0E
1F
b00000000 I
0L
b1010 M
b10 P
b01 Q
1S
#1440000000
0!
0"
1%
0)
1*
05
06
19
0=
1>
#1460000000
1!
0,
15
0@
b0101 M
0S
#1480000000
0!
1"
05
16
#1500000000
1!
1,
b10000000 -
02
13
15
1@
b10000000 A
0F
1G
b00000000 J
1L
b1010 M
b01 P
b10 Q
1S
